
# Do not change tags in here without changing every other reference to them.
# If adding new dieties, make sure they are uniquely named.


# Soise Vio has 6 paths, different religions vary more or less

domestic_teachings = {
	manpower_recovery_speed = 0.1
	legitimacy = 0.5
	republican_tradition = 0.2
	devotion = 0.5
	
    allow = { 
		religion = godlost
		NOT = { has_country_flag = command_new_schools_of_thought_flag }
    }
	
	sprite = 22
	
	ai_will_do = {
		factor = 1
		modifier = {
			factor = 2
			faction_in_power = hob_lion_command
		}
	}
}

strict_teachings = {
	discipline = 0.025
	harsh_treatment_cost = -0.15
	
    allow = { 
		religion = godlost
		NOT = { has_country_flag = command_new_schools_of_thought_flag }
    }
	
	sprite = 23
	
	ai_will_do = {
		factor = 1
		modifier = {
			factor = 2
			faction_in_power = hob_boar_command
		}
	}
}

lenient_teachings = {
	tolerance_heathen = 1
	religious_unity = 0.25
	
    allow = { 
		religion = godlost
		NOT = { has_country_flag = command_new_schools_of_thought_flag }
    }
	
	sprite = 24
	
	ai_will_do = {
		factor = 1
		modifier = {
			factor = 3
			NOT = { religious_unity = 0.6 }
		}
		modifier = {
			factor = 2
			faction_in_power = hob_wolf_command
		}
	}
}

protective_teachings = {
	fort_maintenance_modifier = -0.2
	defensiveness = 0.1
	
    allow = { 
		religion = godlost
		NOT = { has_country_flag = command_new_schools_of_thought_flag }
    }
	
	sprite = 25
	
	ai_will_do = {
		factor = 1
		modifier = {
			factor = 2
			faction_in_power = hob_wolf_command
		}
	}
}

imperialist_teachings = {
	ae_impact = -0.1
	province_warscore_cost = -0.05
	
    allow = { 
		religion = godlost
		NOT = { has_country_flag = command_new_schools_of_thought_flag }
    }
	
	sprite = 26
	
	ai_will_do = {
		factor = 1
		modifier = {
			factor = 2
			faction_in_power = hob_lion_command
		}
	}
}

valorous_teachings = {
	land_morale = 0.05
	prestige_from_land = 1
	
    allow = { 
		religion = godlost
		NOT = { has_country_flag = command_new_schools_of_thought_flag }
    }
	
	sprite = 27
	
	ai_will_do = {
		factor = 1
		modifier = {
			factor = 2
			faction_in_power = hob_boar_command
		}
	}
}

industrious_teachings = {
	global_trade_goods_size_modifier = 0.05
	build_cost = -0.05
	
    allow = { 
		religion = godlost
		NOT = { has_country_flag = command_new_schools_of_thought_flag }
    }
	
	sprite = 28
	
	ai_will_do = {
		factor = 1
		modifier = {
			factor = 2
			faction_in_power = hob_wolf_command
		}
	}
}


### Improved versions

domestic_teachings_improved = {
	manpower_recovery_speed = 0.1
	legitimacy = 1
	republican_tradition = 0.3
	devotion = 1
	
    allow = { 
		religion = godlost
		has_country_flag = command_new_schools_of_thought_flag
    }
	
	sprite = 22
	
	ai_will_do = {
		factor = 1
		modifier = {
			factor = 2
			faction_in_power = hob_lion_command
		}
	}
}

strict_teachings_improved = {
	discipline = 0.05
	harsh_treatment_cost = -0.15
	
    allow = { 
		religion = godlost
		has_country_flag = command_new_schools_of_thought_flag
    }
	
	sprite = 23
	
	ai_will_do = {
		factor = 1
		modifier = {
			factor = 2
			faction_in_power = hob_boar_command
		}
	}
}

lenient_teachings_improved = {
	tolerance_heathen = 2
	religious_unity = 0.25
	
    allow = { 
		religion = godlost
		has_country_flag = command_new_schools_of_thought_flag
    }
	
	sprite = 24
	
	ai_will_do = {
		factor = 1
		modifier = {
			factor = 3
			NOT = { religious_unity = 0.6 }
		}
		modifier = {
			factor = 2
			faction_in_power = hob_wolf_command
		}
	}
}

protective_teachings_improved = {
	fort_maintenance_modifier = -0.2
	defensiveness = 0.2
	
    allow = { 
		religion = godlost
		has_country_flag = command_new_schools_of_thought_flag
    }
	
	sprite = 25
	
	ai_will_do = {
		factor = 1
		modifier = {
			factor = 2
			faction_in_power = hob_wolf_command
		}
	}
}

imperialist_teachings_improved = {
	ae_impact = -0.1
	province_warscore_cost = -0.1
	
    allow = { 
		religion = godlost
		has_country_flag = command_new_schools_of_thought_flag
    }
	
	sprite = 26
	
	ai_will_do = {
		factor = 1
		modifier = {
			factor = 2
			faction_in_power = hob_lion_command
		}
	}
}

valorous_teachings_improved = {
	land_morale = 0.1
	prestige_from_land = 1
	
    allow = { 
		religion = godlost
		has_country_flag = command_new_schools_of_thought_flag
    }
	
	sprite = 27
	
	ai_will_do = {
		factor = 1
		modifier = {
			factor = 2
			faction_in_power = hob_boar_command
		}
	}
}

industrious_teachings_improved = {
	global_trade_goods_size_modifier = 0.1
	build_cost = -0.05
	
    allow = { 
		religion = godlost
		has_country_flag = command_new_schools_of_thought_flag
    }
	
	sprite = 28
	
	ai_will_do = {
		factor = 1
		modifier = {
			factor = 2
			faction_in_power = hob_wolf_command
		}
	}
}

nationalist_teachings = {
	land_morale = 0.1
	global_manpower_modifier = 0.2
	
    allow = {
		has_country_flag = command_nationalist_teachings_flag
		religion = godlost
    }
	
	sprite = 28
	
	ai_will_do = {
		factor = 1
		modifier = {
			factor = 2
			faction_in_power = hob_wolf_command
		}
	}
}

