# Do not change tags in here without changing every other reference to them.
# If adding new dieties, make sure they are uniquely named.

tsarai = {
	global_unrest = -1
	country_admin_power = 1
	
	allow = {
		AND = {
			OR = {
				religion = saanorgegh
			}
			OR = {
				tag = Y91
				AND = {
					NOT = { exists = Y91 }
					owns_core_province = 5406
				}
			}
		}
	}
	
	sprite = 1
	
	ai_will_do = {
		factor = 1
		modifier = {
		factor = 3
			personality = ai_balanced
		}
		modifier = {
			factor = 2
			personality = ai_capitalist
		}
		modifier = {
			factor = 1.2
			government = monarchy
		}
#		modifier = {
#			factor = 1.5
#			culture_group = escanni
#		}
#		modifier = {
#			factor = 0.25
#			has_global_flag = "castellos_is_dead"
#		}
	}
}

jaal = {
	cavalry_shock = 0.1
	raze_power_gain = 0.20
	
	allow = {
		AND = {
			OR = {
				religion = saanorgegh
			}
			OR = {
				tag = Y90
				AND = {
					NOT = { exists = Y90 }
					owns_core_province = 5412
				}
			}
			NOT = { has_country_flag = Y91_jaal_horde }
		}
	}
	
	sprite = 1
	
	ai_will_do = {
		factor = 1
		modifier = {
		factor = 3
			personality = ai_balanced
		}
		modifier = {
			factor = 2
			personality = ai_capitalist
		}
		modifier = {
			factor = 1.2
			government = monarchy
		}
#		modifier = {
#			factor = 1.5
#			culture_group = escanni
#		}
#		modifier = {
#			factor = 0.25
#			has_global_flag = "castellos_is_dead"
#		}
	}
}

oedek = {
	global_missionary_strength = 0.02
	tolerance_heathen = -2
	
	allow = {
		AND = {
			OR = {
				religion = saanorgegh
			}
			OR = {
				tag = Y92
				AND = {
					NOT = { exists = Y92 }
					owns_core_province = 5343
				}
			}
		}
	}
	
	sprite = 1
	
	ai_will_do = {
		factor = 1
		modifier = {
		factor = 3
			personality = ai_balanced
		}
		modifier = {
			factor = 2
			personality = ai_capitalist
		}
		modifier = {
			factor = 1.2
			government = monarchy
		}
#		modifier = {
#			factor = 1.5
#			culture_group = escanni
#		}
#		modifier = {
#			factor = 0.25
#			has_global_flag = "castellos_is_dead"
#		}
	}
}

bhengudakhnar = {
	cb_on_religious_enemies = yes
	warscore_cost_vs_other_religion = -0.2
#	enforce_religion_cost = -0.5
	
	allow = {
		OR = {
			religion = saanorgegh
		}
		has_global_flag = guwaamud_ascension
		owns_core_province = 5348
	}
	
	sprite = 1
	
	ai_will_do = {
		factor = 1
		modifier = {
		factor = 3
			personality = ai_balanced
		}
		modifier = {
			factor = 2
			personality = ai_capitalist
		}
		modifier = {
			factor = 1.2
			government = monarchy
		}
#		modifier = {
#			factor = 1.5
#			culture_group = escanni
#		}
#		modifier = {
#			factor = 0.25
#			has_global_flag = "castellos_is_dead"
#		}
	}
}

daxuusgen = {
	monthly_reform_progress_modifier = 0.2
	global_autonomy = -0.05

	allow = {
		OR = {
			religion = saanorgegh
		}
		has_global_flag = daxugo_ascension
		owns_core_province = 4871
	}
	
	sprite = 1
	
	ai_will_do = {
		factor = 1
		modifier = {
		factor = 3
			personality = ai_balanced
		}
		modifier = {
			factor = 2
			personality = ai_capitalist
		}
		modifier = {
			factor = 1.2
			government = monarchy
		}
#		modifier = {
#			factor = 1.5
#			culture_group = escanni
#		}
#		modifier = {
#			factor = 0.25
#			has_global_flag = "castellos_is_dead"
#		}
	}
}

faceless_queen = {
	core_creation = -0.1
	cavalry_power = 0.25
	
	allow = {
		OR = {
			religion = saanorgegh
		}
		has_global_flag = saanorgegh_faceless_queen_death
		is_female = yes
		owns_core_province = 5406
	}
	
	sprite = 1
	
	ai_will_do = {
		factor = 1
		modifier = {
		factor = 3
			personality = ai_balanced
		}
		modifier = {
			factor = 2
			personality = ai_capitalist
		}
		modifier = {
			factor = 1.2
			government = monarchy
		}
#		modifier = {
#			factor = 1.5
#			culture_group = escanni
#		}
#		modifier = {
#			factor = 0.25
#			has_global_flag = "castellos_is_dead"
#		}
	}
}

menjaeng = {
	religious_unity = 0.5
	tolerance_heretic = 3
	
	allow = {
		OR = {
			religion = saanorgegh
		}
		has_global_flag = Y91_menjaeng_added
		owns_core_province = 5419
	}
	
	sprite = 1
	
	ai_will_do = {
		factor = 1
		modifier = {
		factor = 3
			personality = ai_balanced
		}
		modifier = {
			factor = 2
			personality = ai_capitalist
		}
		modifier = {
			factor = 1.2
			government = monarchy
		}
#		modifier = {
#			factor = 1.5
#			culture_group = escanni
#		}
#		modifier = {
#			factor = 0.25
#			has_global_flag = "castellos_is_dead"
#		}
	}
}
