#Azkare Events
namespace = azkare

#Notes
#Event to turn Sarisung to sarisung culture
#TODO turn 20% rep effects into events allowing players to choose 20/40/60/80 rep
#human tolerance 4 event custom option

#Citadel of Dawn
country_event = {
	id = azkare.1
	title = azkare.1.t
	desc = azkare.1.d
	picture = KING_CHOICE_eventPicture
	
	fire_only_once = yes
	
	trigger = {
		tag = Y86
		owns_core_province = 4789
	}
	
	mean_time_to_happen = {
		days = 1
	}
	
	option = { #Adm Option
		name = azkare.1.a
		ai_chance = { factor = 33 }
		increase_ruler_adm_effect = yes
		4789 = {
			add_province_modifier = {
				name = azkare_modifier_citadel_of_dawn_azkare
				duration = -1
			}
		}
	}
	
	option = { #Dip Option
		name = azkare.1.b
		ai_chance = { factor = 33 }
		increase_ruler_dip_effect = yes
		4789 = {
			add_province_modifier = {
				name = azkare_modifier_citadel_of_dawn_azkare
				duration = -1
			}
		}
	}
	
	option = { #Mil Option
		name = azkare.1.c
		ai_chance = { factor = 33 }
		increase_ruler_mil_effect = yes
		4789 = {
			add_province_modifier = {
				name = azkare_modifier_citadel_of_dawn_azkare
				duration = -1
			}
		}
	}
}

#Decline of Elven Community
country_event = {
	id = azkare.2
	title = azkare.2.t
	desc = azkare.2.d
	picture = KING_CHOICE_eventPicture
	
	trigger = {
		4789 = { #Azkare
			owned_by = ROOT
			is_core = ROOT
			OR = {
				has_province_modifier = azkare_modifier_citadel_of_dawn_azkare
				has_province_modifier = azkare_modifier_citadel_of_dawn_azkare_2
			}
			NOT = { has_elven_minority_trigger = yes }
		}
	}
	
	option = { #Removes Citadel of Dawn Modifier
		name = azkare.2.a
		ai_chance = { factor = 1 }
		4789 = {
			remove_province_modifier = azkare_modifier_citadel_of_dawn_azkare
			remove_province_modifier = azkare_modifier_citadel_of_dawn_azkare_2
		}
	}
}

#Elven Advisors (Decision)
country_event = {
	id = azkare.3
	title = azkare.3.t
	desc = azkare.3.d
	picture = KING_CHOICE_eventPicture
	
	trigger = {
		OR = {
			tag = Y86
			tag = Y00
		}
		has_country_flag = azkare_recruited_elf_advisor_flag_1
	}
	
	mean_time_to_happen = {
		days = 1
	}
	
	immediate = {
		clr_country_flag = azkare_recruited_elf_advisor_flag_1
	}
	
	after = {
		hidden_effect = {
			country_event = {
				id = azkare.4
				days = 3650
			}
		}
	}
	
	option = { #Adm advisor
		name = azkare.3.a
		ai_chance = { factor = 33 }
		random_list = {
			1 = {
				define_advisor = {
					type = master_of_mint
					skill = 2
					culture = sunrise_elf
					religion = righteous_path
					discount = yes
				}
			}
			1= {
				define_advisor = {
					type = theologian
					skill = 2
					culture = sunrise_elf
					religion = righteous_path
					discount = yes
				}
			}
			1 = {
				define_advisor = {
					type = treasurer
					skill = 2
					culture = sunrise_elf
					religion = righteous_path
					discount = yes
				}
			}
			1 = {
				define_advisor = {
					type = artist
					skill = 2
					culture = sunrise_elf
					religion = righteous_path
					discount = yes
				}
			}
			1 = {
				define_advisor = {
					type = natural_scientist
					skill = 2
					culture = sunrise_elf
					religion = righteous_path
					discount = yes
				}
			}
			1 = {
				define_advisor = {
					type = philosopher
					skill = 2
					culture = sunrise_elf
					religion = righteous_path
					discount = yes
				}
			}
			1 = {
				define_advisor = {
					type = court_mage
					skill = 2
					culture = sunrise_elf
					religion = righteous_path
					discount = yes
				}
			}
		}
	}
	
	option = { #Dip adivsor
		name = azkare.3.b
		ai_chance = { factor = 33 }
		random_list = {
			1 = {
				define_advisor = {
					type = statesman
					skill = 2
					culture = sunrise_elf
					religion = righteous_path
					discount = yes
				}
			}
			1 = {
				define_advisor = {
					type = trader
					skill = 2
					culture = sunrise_elf
					religion = righteous_path
					discount = yes
				}
			}
			1 = {
				define_advisor = {
					type = diplomat
					skill = 2
					culture = sunrise_elf
					religion = righteous_path
					discount = yes
				}
			}
			1 = {
				define_advisor = {
					type = spymaster
					skill = 2
					culture = sunrise_elf
					religion = righteous_path
					discount = yes
				}
			}
			1 = {
				define_advisor = {
					type = statesman
					skill = 2
					culture = sunrise_elf
					religion = righteous_path
					discount = yes
				}
			}
		}
	}
	
	option = { #Mil advisor
		name = azkare.3.c
		ai_chance = { factor = 33 }
		random_list = {
			1 = {
				define_advisor = {
					type = army_reformer
					skill = 2
					culture = sunrise_elf
					religion = righteous_path
					discount = yes
				}
			}
			1 = {
				define_advisor = {
					type = army_organiser
					skill = 2
					culture = sunrise_elf
					religion = righteous_path
					discount = yes
				}
			}
			1 = {
				define_advisor = {
					type = commandant
					skill = 2
					culture = sunrise_elf
					religion = righteous_path
					discount = yes
				}
			}
			1 = {
				define_advisor = {
					type = quartermaster
					skill = 2
					culture = sunrise_elf
					religion = righteous_path
					discount = yes
				}
			}
			1 = {
				define_advisor = {
					type = recruitmaster
					skill = 2
					culture = sunrise_elf
					religion = righteous_path
					discount = yes
				}
			}
			1 = {
				define_advisor = {
					type = fortification_expert
					skill = 2
					culture = sunrise_elf
					religion = righteous_path
					discount = yes
				}
			}
			1 = {
				define_advisor = {
					type = grand_captain
					skill = 2
					culture = sunrise_elf
					religion = righteous_path
					discount = yes
				}
			}
		}
	}
}

#Remove recruit flag
country_event = {
	id = azkare.4
	title = azkare.4.t
	desc = azkare.4.d
	picture = KING_CHOICE_eventPicture
	
	is_triggered_only = yes
	
	trigger = {
		OR = {
			tag = Y86
			tag = Y00
		}
	}
	
	hidden = yes
	
	option = { #Remove country flag so you can use the decision again
		name = azkare.4.a
		ai_chance = { factor = 33 }
		clr_country_flag = azkare_recruited_elf_advisor_flag
	}
}

#Sons of Azkare
country_event = {
	id = azkare.5
	title = azkare.5.t
	desc = azkare.5.d
	picture = KING_CHOICE_eventPicture
	
	is_triggered_only = yes
	
	trigger = {
		tag = Y86
	}
	
	option = { #Adm Option
		name = azkare.5.a
		ai_chance = { factor = 33 }
		increase_ruler_adm_effect = yes
		define_advisor = { #Advisor is the same for every option
			name = "Kaita Hiderionzuir"
			type = recruitmaster
			skill = 2
			culture = sikai
			religion = righteous_path
			discount = yes
		}
	}
	
	option = { #Dip Option
		name = azkare.5.b
		ai_chance = { factor = 33 }
		increase_ruler_dip_effect = yes
		define_advisor = { #Advisor is the same for every option
			name = "Kaita Hiderionzuir"
			type = recruitmaster
			skill = 2
			culture = sikai
			religion = righteous_path
			discount = yes
		}
	}
	
	option = { #Mil Option
		name = azkare.5.c
		ai_chance = { factor = 33 }
		increase_ruler_mil_effect = yes
		define_advisor = { #Advisor is the same for every option
			name = "Kaita Hiderionzuir"
			type = recruitmaster
			skill = 2
			culture = sikai
			religion = righteous_path
			discount = yes
		}
	}
}
	
#Touring the Towns
country_event = {
	id = azkare.6
	title = azkare.6.t
	desc = azkare.6.d
	picture = KING_CHOICE_eventPicture
	
	is_triggered_only = yes
	
	trigger = {
		tag = Y86
	}
	
	option = { #Adm Option
		name = azkare.6.a
		ai_chance = { factor = 33 }
		increase_ruler_adm_effect = yes
		add_adm_power = -50
		add_dip_power = -50
	}
	
	option = { #Dip Option
		name = azkare.6.b
		ai_chance = { factor = 33 }
		increase_ruler_dip_effect = yes
		add_adm_power = -50
		add_dip_power = -50
	}
	
	option = { #Mil Option
		name = azkare.6.c
		ai_chance = { factor = 33 }
		increase_ruler_mil_effect = yes
		add_adm_power = -50
		add_dip_power = -50
	}
}
	
#Hiderions contemplation
country_event = {
	id = azkare.7
	title = azkare.7.t
	desc = azkare.7.d
	picture = KING_CHOICE_eventPicture
	
	is_triggered_only = yes
	
	trigger = {
		tag = Y86
	}
	
	option = { #Adm Option
		name = azkare.7.a
		ai_chance = { factor = 33 }
		add_ruler_personality = lawgiver_personality
	}
	
	option = { #Dip Option
		name = azkare.7.b
		ai_chance = { factor = 33 }
		add_ruler_personality = careful_personality
	}
	
	option = { #Mil Option
		name = azkare.7.c
		ai_chance = { factor = 33 }
		add_ruler_personality = inspiring_leader_personality
	}
}

#New Recruits
country_event = {
	id = azkare.8
	title = azkare.8.t
	desc = azkare.8.d
	picture = KING_CHOICE_eventPicture
	
	is_triggered_only = yes
	
	trigger = {
		tag = Y86
	}
	
	option = {
		name = azkare.8.a
		ai_chance = { factor = 1 }
		add_adm_power = -50
		add_treasury = -50
		4789 = { #Create 2 cavalry in Azkare
			add_unit_construction = {
				type = cavalry
				amount = 2
				speed = 1
				cost = 0
			}
		}
		kaiden_area = {
				add_permanent_claim = ROOT
			}
		phakphon_area = {
				add_permanent_claim = ROOT
			}
	}
}

#The Lady Mya Saetae
country_event = {
	id = azkare.9
	title = azkare.9.t
	desc = azkare.9.d
	picture = KING_CHOICE_eventPicture
	
	is_triggered_only = yes
	
	trigger = {
		tag = Y86
	}
	
	option = { #Lady Mya Saetae joins Hiderion, along with her personal guard and treasury
		name = azkare.9.a
		ai_chance = { factor = 1 }
		define_advisor = {
			type = statesman
			name = "Mya Saetae"
			skill = 1
			discount = yes
			female = yes
			culture = sikai
			religion = righteous_path	
		}
		add_manpower = 2
		add_treasury = 50
		hidden_effect = { country_event = { id = azkare.215 days = 730 random = 365 } }
	}
}

#The Lord Rama Buakae
country_event = {
	id = azkare.10
	title = azkare.10.t
	desc = azkare.10.d
	picture = KING_CHOICE_eventPicture
	
	is_triggered_only = yes
	
	trigger = {
		tag = Y86
	}
	
	option = { #Rama Buakae, lord of Lo Ngoen, joins Hiderion in return for autonomy for his people
		name = azkare.10.a
		ai_chance = { factor = 1 }
		define_advisor = {
			type = grand_captain
			name = "Rama Buakae"
			skill = 1
			discount = yes
			culture = sikai
			religion = righteous_path
		}
		4781 = {
			add_unrest = -10
			add_local_autonomy = 25
		}
		4940 = {
			add_local_autonomy = 25
		}
		4777 = {
			add_local_autonomy = 25
		}
		hidden_effect = { country_event = { id = azkare.219 days = 14600 random = 1095 } }
	}
}

#Further Ambitions
country_event = {
	id = azkare.11
	title = azkare.11.t
	desc = azkare.11.d
	picture = KING_CHOICE_eventPicture
	
	is_triggered_only = yes
	
	trigger = {
		tag = Y86
	}
	
	option = { #Adm Option
		name = azkare.11.a
		ai_chance = { factor = 33 }
		increase_ruler_adm_effect = yes
		change_primary_culture = sunrise_elf
		hidden_effect = { add_accepted_culture = sikai }
		add_country_modifier = {
			name = azkare_modifier_ambitions_adm
			duration = 3650
		}
		set_country_flag = azkare_united_townships
		swap_non_generic_missions = yes
	}
	
	option = { #Dip Option
		name = azkare.11.b
		ai_chance = { factor = 33 }
		increase_ruler_dip_effect = yes
		change_primary_culture = sunrise_elf
		hidden_effect = { add_accepted_culture = sikai }
		add_country_modifier = {
			name = azkare_modifier_ambitions_dip
			duration = 3650
		}
		set_country_flag = azkare_united_townships
		swap_non_generic_missions = yes
	}
	
	option = { #Mil Option
		name = azkare.11.c
		ai_chance = { factor = 33 }
		increase_ruler_mil_effect = yes
		change_primary_culture = sunrise_elf
		hidden_effect = { add_accepted_culture = sikai }
		add_country_modifier = {
			name = azkare_modifier_ambitions_mil
			duration = 3650
		}
		set_country_flag = azkare_united_townships
		swap_non_generic_missions = yes
	}
}	

#The Death of our Lord
country_event = {
	id = azkare.12
	title = azkare.12.t
	desc = azkare.12.d
	picture = KING_CHOICE_eventPicture
	
	is_triggered_only = yes
	
	trigger = {
		tag = Y59
	}
	
	option = { #Thirabnir ruler dies, gain new ruled, become vassal of azkare
		name = azkare.12.a
		ai_chance = { factor = 1 }
		define_ruler = {
			name = "Kiyokat"
			dynasty = "Chaiya"
			mil = 2
			age = 23
			claim = 65
			culture = sikai
			religion = rightious_path
			male = yes
		}
		Y86 = {
			country_event = { id = azkare.13 }
		}
	}
	option = { #Player Option
		name = azkare.12.b
		ai_chance = { factor = 0 }
		define_ruler = {
			name = "Kiyokat"
			dynasty = "Chaiya"
			mil = 2
			age = 23
			claim = 65
			culture = sikai
			religion = rightious_path
			male = yes
		}
		add_prestige = 10
		Y86 = { #Azkare
			country_event = { id = azkare.14 }
		}
	}
}

#Thirabnir submits
country_event = {
	id = azkare.13
	title = azkare.13.t
	desc = azkare.13.d
	picture = KING_CHOICE_eventPicture
	
	is_triggered_only = yes
	
	trigger = {
		tag = Y86
	}
	
	option = { #confirmation of vassalisation
		name = azkare.13.a
		ai_chance = { factor = 1 }
		if = {
			limit = { exists = Y59 }
			Y86 = { #Azkare
				vassalize = Y59 #Thirabnir
			}
		}
	}
}

#Thirabnir remains independent
country_event = {
	id = azkare.14
	title = azkare.14.t
	desc = azkare.14.d
	picture = KING_CHOICE_eventPicture
	
	is_triggered_only = yes
	
	trigger = {
		tag = Y86
	}
	
	option = {
		name = azkare.14.a
		ai_chance = { factor = 1 }
		Y86 = {
			add_casus_belli = {
				target = Y59
				type = cb_vassalize_mission
				months = 120
			}
		}
	}
}

#Gathering the Lost
country_event = {
	id = azkare.15
	title = azkare.15.t
	desc = azkare.15.d
	picture = KING_CHOICE_eventPicture
	
	is_triggered_only = yes
	
	trigger = {
		tag = Y86
	}
	
	option = { #Adm Option
		name = azkare.15.a
		ai_chance = { factor = 33 }
		increase_ruler_adm_effect = yes
		set_country_flag = azkare_gathering_the_lost_flag
	}
	
	option = { #Dip Option
		name = azkare.15.b
		ai_chance = { factor = 33 }
		increase_ruler_dip_effect = yes
		set_country_flag = azkare_gathering_the_lost_flag
	}
	
	option = { #Mil Option
		name = azkare.15.c
		ai_chance = { factor = 33 }
		increase_ruler_mil_effect = yes
		set_country_flag = azkare_gathering_the_lost_flag
	}
}

#The Brothers Chaiya
country_event = {
	id = azkare.16
	title = azkare.16.t
	desc = azkare.16.d
	picture = KING_CHOICE_eventPicture
	
	is_triggered_only = yes
	
	trigger = {
		tag = Y86
	}
	
	option = { #The Brothers Chaiya join Azkare as philosopher and general
		name = azkare.16.a
		ai_chance = { factor = 1 }
		define_advisor = {
			type = philosopher
			name = "Sevinay Chaiya"
			skill = 1
			discount = yes
			culture = sikai
			religion = righteous_path
		}
		define_general = {
			name = "Kiyokat Chaiya"
			shock = 2
			fire = 3
			manuever = 1
			siege = 1
			trait = glory_seeker_personality
		}
		hidden_effect = { country_event = { id = azkare.219 days = 12775 random = 1825 } }
	}	
}

#The Elves of Lektonmai
country_event = {
	id = azkare.17
	title = azkare.17.t
	desc = azkare.17.d
	picture = KING_CHOICE_eventPicture
	
	is_triggered_only = yes
	
	trigger = {
		OR = {
			tag = Y86
			tag = Y00
		}
	}
	
	option = { #Elven Bowmasters invent their unique bows and master the craft
		name = azkare.17.a
		ai_chance = { factor = 1 }
		add_army_tradition = 5
		add_country_modifier = {
			name = azkare_modifier_elven_bowmasters
			duration = 7300 #20 Years
		}
	}	
}

#Closing the Market
country_event = {
	id = azkare.18
	title = azkare.18.t
	desc = azkare.18.d
	picture = KING_CHOICE_eventPicture
	
	is_triggered_only = yes
	
	trigger = {
		OR = {
			tag = Y86
			tag = Y00
		}
	}
	
	option = {
		name = azkare.18.a
		ai_chance = { factor = 1 }
		add_army_tradition = 5
		4570 = { #Prukhadhin
			add_devastation = 50
			add_unrest = 10
			add_province_modifier = {
				name = azkare_modifier_closed_market
				duration = 365
			}
		}
	}	
}

#Direction of the Daulophs
country_event = {
	id = azkare.19
	title = azkare.19.t
	desc = azkare.19.d
	picture = KING_CHOICE_eventPicture
	
	is_triggered_only = yes
	
	trigger = {
		OR = {
			tag = Y86
			tag = Y00
		}
	}
	
	option = { #Let them stay as mercenary nobles, we need the troops.
		name = azkare.19.a
		ai_chance = { factor = 1 }
		set_country_flag = azkare_dauloph_mercenaries
		custom_tooltip = azkare_direction_of_daulophs_tooltip
		add_manpower = -5
		add_treasury = -200
	}
	
	option = { #The time for mercenaries is over, revoke their licenses grant them new lands to sustain themselves.
		name = azkare.19.b
		ai_chance = { factor = 1 }
		change_estate_land_share = {
			estate = nobles
			share = 5
		}
		add_country_modifier = {
			name = azkare_modifier_dauloph_loyalty
			duration = 7200 #20 Years
		}
	}
}

#Finorian Urionzuir
country_event = {
	id = azkare.20
	title = azkare.20.t
	desc = azkare.20.d
	picture = KING_CHOICE_eventPicture
	
	is_triggered_only = yes
	
	trigger = {
		OR = {
			tag = Y86
			tag = Y00
		}
	}
	
	option = { #Gain Finorian Urionzuir as an advisor
		name = azkare.20.a
		ai_chance = { factor = 1 }
		define_advisor = {
			name = "Finorian Urionzuir"
			type = fortification_expert
			skill = 3
			culture = sunrise_elf
			religion = high_philosophy
			discount = yes
		}
	}	
}

#Renewed Market
country_event = {
	id = azkare.21
	title = azkare.21.t
	desc = azkare.21.d
	picture = KING_CHOICE_eventPicture
	
	is_triggered_only = yes
	
	trigger = {
		OR = {
			tag = Y86
			tag = Y00
		}
	}
	
	option = { #Paper
		name = azkare.21.a
		ai_chance = { factor = 1 }
		4570 = { #Prukhadhin
			change_trade_goods = paper
			add_base_tax = 3
		}
	}
	
	option = { #Gems
		name = azkare.21.b
		ai_chance = { factor = 1 }
		4570 = { #Prukhadhin
			change_trade_goods = gems
			add_base_production = 3
		}
	}
	
	option = { #Cloth
		name = azkare.21.c
		ai_chance = { factor = 1 }
		4570 = { #Prukhadhin
			change_trade_goods = cloth
			add_base_production = 3
		}
	}
}

#How to approach Arawkelin
country_event = {
	id = azkare.22
	title = azkare.22.t
	desc = azkare.22.d
	picture = KING_CHOICE_eventPicture
	
	is_triggered_only = yes
	
	trigger = {
		OR = {
			tag = Y86
			tag = Y00
		}
	}
	
	option = { #ADM option
		name = azkare.22.a
		ai_chance = { factor = 1 }
		if = {
			limit = {
				OR = {
					full_idea_group = influence_ideas
					full_idea_group = diplomatic_ideas
				}
			}
			add_adm_power = -200
		}
		else = {
			add_adm_power = -400
		}
		add_treasury = -500
		Y65 = {
			country_event = { id = azkare.23 }
		}
	}
	
	option = { #DIP Option
		name = azkare.22.b
		ai_chance = { factor = 1 }
		if = {
			limit = {
				OR = {
					full_idea_group = influence_ideas
					full_idea_group = diplomatic_ideas
				}
			}
			add_dip_power = -200
		}
		else = {
			add_dip_power = -400
		}
		add_treasury = -500
		Y65 = {
			country_event = { id = azkare.24 }
		}
	}
	
	option = { #MIL option
		name = azkare.22.c
		ai_chance = { factor = 1 }
		if = {
			limit = {
				OR = {
					full_idea_group = influence_ideas
					full_idea_group = diplomatic_ideas
				}
			}
			add_mil_power = -200
		}
		else = {
			add_mil_power = -400
		}
		add_treasury = -500
		Y65 = {
			country_event = { id = azkare.25 }
		}
	}
}

#TODO: Set up ai factors
#Arawkelin event: How do we Answer? ADM
country_event = {
	id = azkare.23
	title = azkare.23.t
	desc = azkare.23.d
	picture = KING_CHOICE_eventPicture
	
	is_triggered_only = yes
	
	trigger = {
		tag = Y65
	}
	
	option = { #We Accept
		name = azkare.23.a
		ai_chance = { factor = 1 }
		add_adm_power = 400
		add_treasury = 500
		Y86 = {
			country_event = { id = azkare.27 }
		}
	}

	option = { #Hiderion sucks, nah
		name = azkare.23.b
		ai_chance = { factor = 1 }
		Y86 = {
			country_event = { id = azkare.26 }
		}
	}
}

#Arawkelin event: How do we Answer? DIP
country_event = {
	id = azkare.24
	title = azkare.24.t
	desc = azkare.24.d
	picture = KING_CHOICE_eventPicture
	
	is_triggered_only = yes
	
	trigger = {
		tag = Y65
	}
	
	option = { #We Accept
		name = azkare.24.a
		ai_chance = { factor = 1 }
		add_dip_power = 400
		add_treasury = 500
		Y86 = {
			country_event = { id = azkare.28 }
		}
	}

	option = { #Hiderion sucks, nah
		name = azkare.24.b
		ai_chance = { factor = 1 }
		Y86 = {
			country_event = { id = azkare.26 }
		}
	}
}

#Arawkelin event: How do we Answer? MIL
country_event = {
	id = azkare.25
	title = azkare.25.t
	desc = azkare.25.d
	picture = KING_CHOICE_eventPicture
	
	is_triggered_only = yes
	
	trigger = {
		tag = Y65
	}
	
	option = { #We Accept
		name = azkare.25.a
		ai_chance = { factor = 1 }
		add_mil_power = 400
		add_treasury = 500
		Y86 = {
			country_event = { id = azkare.29 }
		}
	}

	option = { #Hiderion sucks, nah
		name = azkare.25.b
		ai_chance = { factor = 1 }
		Y86 = {
			country_event = { id = azkare.26 }
		}
	}
}

#Arawkelin declines!
country_event = {
	id = azkare.26
	title = azkare.26.t
	desc = azkare.26.d
	picture = KING_CHOICE_eventPicture
	
	is_triggered_only = yes
	
	trigger = {
		tag = Y86
	}
	
	option = {
		name = azkare.26.a
		ai_chance = { factor = 1 }
		add_casus_belli = {
			target = Y65
			type = cb_vassalize_mission
			months = 60
		}
		add_prestige = -25
	}	
}

#Arawkelin accepts! ADM
country_event = {
	id = azkare.27
	title = azkare.27.t
	desc = azkare.27.d
	picture = KING_CHOICE_eventPicture
	
	is_triggered_only = yes
	
	trigger = {
		tag = Y86
	}
	
	option = {
		name = azkare.27.a
		ai_chance = { factor = 1 }
		set_country_flag = azkare_arawkelino_accepts_adm
		swap_non_generic_missions = yes
		create_alliance = Y65
	}	
}

#Arawkelin accepts! DIP
country_event = {
	id = azkare.28
	title = azkare.28.t
	desc = azkare.28.d
	picture = KING_CHOICE_eventPicture
	
	is_triggered_only = yes
	
	trigger = {
		tag = Y86
	}
	
	option = {
		name = azkare.28.a
		ai_chance = { factor = 1 }
		set_country_flag = azkare_arawkelino_accepts_dip
		swap_non_generic_missions = yes
		create_alliance = Y65
	}	
}

#Arawkelin accepts! MIL
country_event = {
	id = azkare.29
	title = azkare.29.t
	desc = azkare.29.d
	picture = KING_CHOICE_eventPicture
	
	is_triggered_only = yes
	
	trigger = {
		tag = Y86
	}
	
	option = {
		name = azkare.29.a
		ai_chance = { factor = 1 }
		set_country_flag = azkare_arawkelino_accepts_mil
		swap_non_generic_missions = yes
		create_alliance = Y65
	}	
}

#30-33 is free

#A meeting with the ghost emperor
# country_event = {
	# id = azkare.34
	# title = azkare.34.t
	# desc = azkare.34.d
	# picture = KING_CHOICE_eventPicture
	
	# is_triggered_only = yes
	
	# trigger = {
		# tag = Y86
	# }	
	
	# option = { #Adm Option
		# name = azkare.34.a
		# ai_chance = { factor = 33 }
		# increase_ruler_adm_effect = yes
	# }
	
	# option = { #Dip Option
		# name = azkare.34.b
		# ai_chance = { factor = 33 }
		# increase_ruler_dip_effect = yes
	# }
	
	# option = { #Mil Option
		# name = azkare.34.c
		# ai_chance = { factor = 33 }
		# increase_ruler_mil_effect = yes
	# }
# }

#Halessi Tea Houses
country_event = {
	id = azkare.35
	title = azkare.35.t
	desc = azkare.35.d
	picture = KING_CHOICE_eventPicture
	
	is_triggered_only = yes
	
	trigger = {
		OR = {
			tag = Y86
			tag = Y00
		}
	}
	
	option = { ##Halessi Tea Houses, similar to European Coffee houses, event that gives institution spread for a while
		name = azkare.35.a
		ai_chance = { factor = 1 }
		capital_scope = {
			every_province_in_state = {
				add_next_institution_embracement = 25
			}
		}
		add_country_modifier = {
			name = azkare_modifier_halessi_tea_houses
			duration = 18250 #50 Years
		}
	}	
}

#A Stroll through the Streets
country_event = {
	id = azkare.36
	title = azkare.36.t
	desc = azkare.36.d
	picture = KING_CHOICE_eventPicture
	
	is_triggered_only = yes
	
	trigger = {
		tag = Y86
	}
	
	option = {
		name = azkare.36.a
		ai_chance = { factor = 1 }
		set_capital = 4500
		custom_tooltip = azkare_stroll_tooltip
		sarisung_area = {
			hidden_effect = {
				remove_all_buildings = yes
			}
			add_province_modifier = {
				name = azkare_modifier_sarisung_reluctant_subjects
				duration = -1
			}
			add_province_modifier = {
				name = azkare_modifier_sarisung_belligerent_gangs
				duration = -1
			}
		}
	}	
}

#Xia revolt
country_event = {
	id = azkare.37
	title = azkare.37.t
	desc = azkare.37.d
	picture = KING_CHOICE_eventPicture
	
	is_triggered_only = yes
	
	trigger = {
		tag = Y86
	}
	
	option = { #Xia Revolt
		name = azkare.37.a
		ai_chance = { factor = 1 }
		xianjie_region = {
			limit = {
				owned_by = Y86
			}
			add_unrest = 10
		}
		add_country_modifier = {
			name = azkare_modifier_xia_revolt
			duration = -1
		}
		4559 = {
			spawn_rebels = {
			 type = righteous_path_rebels
			 size = 3
			}
		}
		4614 = {
			spawn_rebels = {
				type = righteous_path_rebels
				size = 2
			}
		}
		4806 = {
			spawn_rebels = {
				type = righteous_path_rebels
				size = 2
			}
		}
	}	
}

#Ruling the Xia
country_event = {
	id = azkare.38
	title = azkare.38.t
	desc = azkare.38.d
	picture = KING_CHOICE_eventPicture
	
	is_triggered_only = yes
	
	trigger = {
		tag = Y86
	}
	
	option = { #Grant the Xia autonomy
		name = azkare.38.a
		ai_chance = { factor = 1 }
		remove_country_modifier = azkare_modifier_xia_revolt
		custom_tooltip = azkare_western_yan_representation_-20_tooltip
		hidden_effect = {
			azkare_parliament_change_representation_effect = { western_yan = yes amount = -20 }
		}
		set_country_flag = azkare_xia_integrated_flag
	}
}

#Dagran Jadebeard
country_event = {
	id = azkare.39
	title = azkare.39.t
	desc = azkare.39.d
	picture = KING_CHOICE_eventPicture
	
	is_triggered_only = yes
	
	trigger = {
		tag = Y86
	}
	
	option = { #Grant verkal ozovar autonomy in return for service TODO
		name = azkare.38.a
		ai_chance = { factor = 1 }
		medium_increase_of_dwarven_tolerance_effect = yes
		custom_tooltip = azkare_nephrite_dwarf_representation_20_tooltip
		hidden_effect = {
			azkare_parliament_change_representation_effect = { nephrite_dwarf = yes amount = 20 }
		}
		5424 = {
			add_province_modifier = {
				name = azkare_modifier_autonomous_hold
				duration = -1
			}
		}
	}
}

#Elves of Sarisung
country_event = {
	id = azkare.40
	title = azkare.40.t
	desc = azkare.40.d
	picture = KING_CHOICE_eventPicture
	
	is_triggered_only = yes
	
	trigger = {
		tag = Y86
	}
	
	option = {
		name = azkare.40.a
		ai_chance = { factor = 1 }
		define_advisor = { #Artist Dude
			culture = sunrise_elf
			name = "Galindor Nersterinzuir"
			type = artist
			religion = high_philosophy
			skill = 3
			discount = yes
		}
	}	
}

#Sarisungi Elven district
country_event = {
	id = azkare.41
	title = azkare.41.t
	desc = azkare.41.d
	picture = KING_CHOICE_eventPicture
	
	is_triggered_only = yes
	
	trigger = {
		tag = Y00
	}
	
	option = {
		name = azkare.41.a
		ai_chance = { factor = 1 }
		4489 = { #Change Ketthur to Sunrise Elf
			change_culture = sunrise_elf
		}
	}	
}

#Empire of the Rising Sun
country_event = {
	id = azkare.42
	title = azkare.42.t
	desc = azkare.42.d
	picture = KING_CHOICE_eventPicture
	
	is_triggered_only = yes
	
	trigger = {
		tag = Y86
	}
	
	option = {
		name = azkare.42.a
		ai_chance = { factor = 1 }
		hidden_effect = {
			every_owned_province = {
				limit = { has_seat_in_parliament = yes }
				set_province_flag = azkare_azkare_to_sunrise_empire_parliament_saver_flag
			}
		}
		remove_country_modifier = azkare_modifier_mystic_accord_tolerance
		remove_country_modifier = azkare_modifier_nephrite_artillery
		set_country_flag = azkare_legion_bonus_3_enabled
		set_government_rank = 3
		add_prestige = 35
		set_country_flag = formed_sunrise_empire_flag
		change_tag = Y00
		if = {
			limit = { has_custom_ideas = no }
			country_event = { id = ideagroups.1 } #Swap Ideas
		}
		if = {
			limit = { NOT = { government = republic } }
			change_government = republic
			add_government_reform = sunrise_court_reform
		}
		else_if = {
			limit = {
				government = republic
				NOT = { has_reform = sunrise_court_reform }
			}
			add_government_reform = sunrise_court_reform
		}
		hidden_effect = {
			every_owned_province = {
				limit = { has_province_flag = azkare_azkare_to_sunrise_empire_parliament_saver_flag }
				set_seat_in_parliament = yes
				clr_province_flag = azkare_azkare_to_sunrise_empire_parliament_saver_flag
			}
		}
		add_country_modifier = {
			name = "centralization_modifier"
			duration = 7300
		}
		swap_non_generic_missions = yes
	}	
}

#Incorporating the ministeries
country_event = {
	id = azkare.43
	title = azkare.43.t
	desc = azkare.43.d
	picture = KING_CHOICE_eventPicture
	
	is_triggered_only = yes
	
	trigger = {
		tag = Y00
	}
	
	option = { #Incorporate them fully
		name = azkare.43.a
		ai_chance = { factor = 1 }
		add_country_modifier = {
			name = azkare_modifier_incorporated_the_ministiries
			duration = 7300
		}
		custom_tooltip = azkare_royal_harimari_representation_20_tooltip
		hidden_effect = {
			azkare_parliament_change_representation_effect = { royal_harimari = yes amount = 20 }
		}
	}
	
	option = { #It is a corrupt system, we have no need for it.
		name = azkare.43.b
		ai_chance = { factor = 1 }
		add_prestige = 10
	}	
}

#-------# Old Guard Event Chain #------#

#Old Guard requests positions
country_event = {
	id = azkare.44
	title = azkare.44.t
	desc = azkare.44.d
	picture = KING_CHOICE_eventPicture
	
	fire_only_once = yes
	
	trigger = {
		tag = Y86
		has_country_flag = azkare_elves_flock_to_azkare_flag #TODO
	}
	
	mean_time_to_happen = {
		months = 36
	}
	
	option = { #Give them some positions
		name = azkare.44.a
		ai_chance = { factor = 1 }
		change_estate_land_share = {
			estate = nobles
			share = 10
		}
		add_country_modifier = {
			name = azkare_modifier_old_guard_nobility
			duration = 3650 #10 Years
		}
		hidden_effect = {
			country_event = {
				id = azkare.45
				days = 3650
			}
		}
		set_country_flag = azkare_gave_old_guard_positions_flag
	}
	
	option = { #No! This goes against all our ideals.
		name = azkare.44.b
		ai_chance = { factor = 1 }
		custom_tooltip = azkare_old_guard_will_not_like_this_tooltip
		hidden_effect = {
			country_event = {
				id = azkare.45
				days = 3650
			}
		}
	}	
}

 #Old Guard Demands Officer Positions
country_event = {
	id = azkare.45
	title = azkare.45.t
	desc = azkare.45.d
	picture = KING_CHOICE_eventPicture
	
	fire_only_once = yes
	
	is_triggered_only = yes
	
	trigger = {
		tag = Y86
	}
	
	option = { #We have already given them positions, they ask too much.
		name = azkare.45.a
		ai_chance = { factor = 1 }
		highlight = yes
		trigger = {
			custom_trigger_tooltip = {
				tooltip = azkare_gave_old_guard_positions_tooltip
				has_country_flag = azkare_gave_old_guard_positions_flag
			}
		}
		add_army_tradition = -10
		hidden_effect = {
			country_event = {
				id = azkare.46
				days = 1850
			}
		}
		clr_country_flag = azkare_gave_old_guard_positions_flag
		set_country_flag = azkare_gave_old_guard_officership_flag
	}
	
	option = { #Give them what they want
		name = azkare.45.b
		ai_chance = { factor = 1 }
		add_army_tradition = -10
		add_country_modifier = {
			name = azkare_modifier_old_guard_officers
			duration = 3650 #10 Years
		}
		hidden_effect = {
			country_event = {
				id = azkare.46
				days = 1850
			}
		}
		set_country_flag = azkare_gave_old_guard_officership_flag
	}
	
	option = { #We have plenty of fine officers, send them away
		name = azkare.45.c
		ai_chance = { factor = 1 }
		custom_tooltip = azkare_old_guard_will_not_like_this_tooltip
		hidden_effect = {
			country_event = {
				id = azkare.46
				days = 1850
			}
		}
	}	
}

 #Consequences of the Old Guard Events
country_event = {
	id = azkare.46
	title = azkare.46.t
	desc = azkare.46.d
	picture = KING_CHOICE_eventPicture
	
	fire_only_once = yes
	
	is_triggered_only = yes
	
	trigger = {
		tag = Y86
	}
	
	option = { #The Old Guard Revolts!
		name = azkare.46.a
		ai_chance = { factor = 1 }
		highlight = yes
		trigger = {
			custom_trigger_tooltip = {
				tooltip = azkare_aistzuir_1_tooltip
				NOT = {
					has_country_flag = azkare_gave_old_guard_positions_flag
					has_country_flag = azkare_gave_old_guard_officership_flag
				}
			}
		}
		4789 = {
			spawn_rebels = {
				type = noble_rebels
				size = 3
				culture = sunrise_elf
				religion = righteous_path
				leader = "Urion Salaszur"
			}
		}
	}
	
	option = { #The Old Guard Revolts! (Reduced)
		name = azkare.46.b
		ai_chance = { factor = 1 }
		highlight = yes
		trigger = {
			custom_trigger_tooltip = {
				tooltip = azkare_aistzuir_2_tooltip
				OR = {
					has_country_flag = azkare_gave_old_guard_positions_flag
					has_country_flag = azkare_gave_old_guard_officership_flag
				}
				NOT = {
					AND = {
						has_country_flag = azkare_gave_old_guard_positions_flag
						has_country_flag = azkare_gave_old_guard_officership_flag
					}
				}
			}
		}
		4789 = {
			spawn_rebels = {
				type = noble_rebels
				size = 2
				culture = sunrise_elf
				religion = righteous_path
				leader = "Urion Salaszur"
			}
		}
	}
	
	option = { #The Old Guard is appeased!
		name = azkare.46.c
		ai_chance = { factor = 1 }
		highlight = yes
		trigger = {
			custom_trigger_tooltip = {
				tooltip = azkare_aistzuir_3_tooltip
				has_country_flag = azkare_gave_old_guard_positions_flag
				has_country_flag = azkare_gave_old_guard_officership_flag
			}
		}
		add_prestige = -10
		add_country_modifier = { #Also renames the nobility estate for the duration
			name = azkare_modifier_aistszur #Less severe versions of both concessions
			duration = 18500 #50 Years
		}
	}
}

#Sarisung Culture Converges
country_event = {
	id = azkare.47
	title = azkare.47.t
	desc = azkare.47.d
	picture = KING_CHOICE_eventPicture
	
	is_triggered_only = yes
	
	trigger = {
		OR = {
			tag = Y86
			tag = Y00
		}
	}
	
	option = { #Culture in Sarisung area becomes Sarisungi, Unless Sunrise Elf
		name = azkare.47.a
		ai_chance = { factor = 1 }
		every_owned_province = {
			limit = { area = sarisung_area }
			if = {
				limit = { NOT = { culture = sunrise_elf } }
				change_culture = sarisungi
			}
			if = {
				limit = { religion = lefthand_path }
				change_religion = ROOT
			}
		}
	}	
}

#Nur Yemenar
country_event = {
	id = azkare.48
	title = azkare.48.t
	desc = azkare.48.d
	picture = KING_CHOICE_eventPicture
	
	is_triggered_only = yes
	
	trigger = {
		tag = Y00
	}
	
	option = { #cool modifier go br
		name = azkare.48.a
		ai_chance = { factor = 1 }
		add_country_modifier = {
			name = azkare_modifier_nur_yemenar
			duration = -1
		}
	}	
}

#-------# Parliament Stuff #-------#
#
country_event = {
	id = azkare.100
	title = azkare.100.t
	desc = azkare.100.d
	picture = EMPTY_eventPicture
	
	is_triggered_only = yes
	
	immediate = {
		hidden_effect = { azkare_parliament_calculations = yes }
	}
	
	#Close
	option = {
		name = azkare.100.z
		clr_country_flag = azkare_parliament_menu
	}
	
	#Kai Culture Group Menu
	option = {
		name = azkare.100.a
		hidden_effect = { country_event = { id = azkare.101 } }
	}
	
	#Bom Culture Group Menu
	option = {
		name = azkare.100.b
		hidden_effect = { country_event = { id = azkare.102 } }
	}
	
	#Kelino Culture Group Menu
	option = {
		name = azkare.100.c
		hidden_effect = { country_event = { id = azkare.103 } }
	}
	
	#Odheongun Culture Group Menu
	option = {
		name = azkare.100.dd
		hidden_effect = { country_event = { id = azkare.104 } }
	}
	
	#Yan Culture Group Menu
	option = {
		name = azkare.100.e
		hidden_effect = { country_event = { id = azkare.105 } }
	}
	
	#Yanglam Culture Group Menu
	option = {
		name = azkare.100.f
		hidden_effect = { country_event = { id = azkare.106 } }
	}
	
	#lower Raheni Culture Group Menu
	option = {
		name = azkare.100.g
		hidden_effect = { country_event = { id = azkare.107 } }
	}
	
	#Middle Raheni Culture Group Menu
	option = {
		name = azkare.100.h
		hidden_effect = { country_event = { id = azkare.108 } }
	}
	
	#Upper Raheni Culture Group Menu
	option = {
		name = azkare.100.i
		hidden_effect = { country_event = { id = azkare.109 } }
	}
	
	#Non Human Culture Group Menu
	option = {
		name = azkare.100.j
		hidden_effect = { country_event = { id = azkare.110 } }
	}
	
	#Close
	option = {
		name = azkare.100.z
		clr_country_flag = azkare_parliament_menu
	}
}

#Kai
country_event = {
	id = azkare.101
	title = azkare.101.t
	desc = azkare.101.d
	picture = { trigger = { NOT = { has_country_flag = azkare_info_window_hidden } } picture = AZKARE_INFO_WINDOW_eventPicture }
	picture = { trigger = { has_country_flag = azkare_info_window_hidden } picture = EMPTY_eventPicture }
	
	is_triggered_only = yes
	
	#Next Page
	option = {
		name = azkare.101.a
		hidden_effect = { country_event = { id = azkare.102 } }
	}
	
	#Previous Page
	option = {
		name = azkare.101.b
		hidden_effect = { country_event = { id = azkare.110 } }
	}
	
	#Reorganise
	option = {
		name = azkare.101.c
		custom_tooltip = azkare_reorganise_tt
		if = { limit = { has_country_modifier = azkare_reorganise_kai }
			custom_tooltip = azkare_reorganise_cost_tt
			add_adm_power = -100
			add_dip_power = -100
			add_mil_power = -100
		}
		hidden_effect = {
			add_country_modifier = { name = azkare_reorganise_kai duration = 18250 hidden = yes }
			every_owned_province = {
				limit = { culture_group = kai }
				set_seat_in_parliament = no
			}
			set_country_flag = azkare_menu_1
			country_event = { id = azkare.113 }
			azkare_parliament_calculations = yes
		}
	}
	
	#Hide info window
	option = {
		name = azkare.101.f
		trigger = { NOT = { has_country_flag = azkare_info_window_hidden } }
		hidden_effect = {
			set_country_flag = azkare_info_window_hidden
			set_country_flag = azkare_menu_1
			country_event = { id = azkare.113 }
		}
	}
	
	#Show info window
	option = {
		name = azkare.101.g
		trigger = { has_country_flag = azkare_info_window_hidden }
		hidden_effect = {
			clr_country_flag = azkare_info_window_hidden
			set_country_flag = azkare_menu_1
			country_event = { id = azkare.113 }
		}
	}
	
	#Refresh
	option = {
		name = azkare.101.dd
		hidden_effect = {
			set_country_flag = azkare_menu_1
			country_event = { id = azkare.113 }
			azkare_parliament_calculations = yes
		}
	}
	
	#Back to Menu
	option = {
		name = azkare.101.e
		hidden_effect = { country_event = { id = azkare.100 } }
	}
}

#Bom
country_event = {
	id = azkare.102
	title = azkare.101.t
	desc = azkare.102.d
	picture = { trigger = { NOT = { has_country_flag = azkare_info_window_hidden } } picture = AZKARE_INFO_WINDOW_eventPicture }
	picture = { trigger = { has_country_flag = azkare_info_window_hidden } picture = EMPTY_eventPicture }
	
	is_triggered_only = yes
	
	#Next Page
	option = {
		name = azkare.101.a
		hidden_effect = { country_event = { id = azkare.103 } }
	}
	
	#Previous Page
	option = {
		name = azkare.101.b
		hidden_effect = { country_event = { id = azkare.101 } }
	}
	
	#Reorganise
	option = {
		name = azkare.102.c
		custom_tooltip = azkare_reorganise_tt
		if = { limit = { has_country_modifier = azkare_reorganise_bom }
			custom_tooltip = azkare_reorganise_cost_tt
			add_adm_power = -100
			add_dip_power = -100
			add_mil_power = -100
		}
		hidden_effect = {
			add_country_modifier = { name = azkare_reorganise_bom duration = 18250 hidden = yes }
			every_owned_province = {
				limit = { culture_group = bom }
				set_seat_in_parliament = no
			}
			set_country_flag = azkare_menu_2
			country_event = { id = azkare.113 }
			azkare_parliament_calculations = yes
		}
	}
	
	#Hide info window
	option = {
		name = azkare.101.f
		trigger = { NOT = { has_country_flag = azkare_info_window_hidden } }
		hidden_effect = {
			set_country_flag = azkare_info_window_hidden
			set_country_flag = azkare_menu_2
			country_event = { id = azkare.113 }
		}
	}
	
	#Show info window
	option = {
		name = azkare.101.g
		trigger = { has_country_flag = azkare_info_window_hidden }
		hidden_effect = {
			clr_country_flag = azkare_info_window_hidden
			set_country_flag = azkare_menu_2
			country_event = { id = azkare.113 }
		}
	}
	
	#Refresh
	option = {
		name = azkare.101.dd
		hidden_effect = {
			set_country_flag = azkare_menu_2
			country_event = { id = azkare.113 }
			azkare_parliament_calculations = yes
		}
	}
	
	#Back to Menu
	option = {
		name = azkare.101.e
		hidden_effect = { country_event = { id = azkare.100 } }
	}
}

#Kelino
country_event = {
	id = azkare.103
	title = azkare.101.t
	desc = azkare.103.d
	picture = { trigger = { NOT = { has_country_flag = azkare_info_window_hidden } } picture = AZKARE_INFO_WINDOW_eventPicture }
	picture = { trigger = { has_country_flag = azkare_info_window_hidden } picture = EMPTY_eventPicture }
	
	is_triggered_only = yes
	
	#Next Page
	option = {
		name = azkare.101.a
		hidden_effect = { country_event = { id = azkare.104 } }
	}
	
	#Previous Page
	option = {
		name = azkare.101.b
		hidden_effect = { country_event = { id = azkare.102 } }
	}
	
	#Reorganise
	option = {
		name = azkare.103.c
		custom_tooltip = azkare_reorganise_tt
		if = { limit = { has_country_modifier = azkare_reorganise_kelino }
			custom_tooltip = azkare_reorganise_cost_tt
			add_adm_power = -100
			add_dip_power = -100
			add_mil_power = -100
		}
		hidden_effect = {
			add_country_modifier = { name = azkare_reorganise_kelino duration = 18250 hidden = yes }
			every_owned_province = {
				limit = { culture_group = kelino }
				set_seat_in_parliament = no
			}
			set_country_flag = azkare_menu_3
			country_event = { id = azkare.113 }
			azkare_parliament_calculations = yes
		}
	}
	
	#Hide info window
	option = {
		name = azkare.101.f
		trigger = { NOT = { has_country_flag = azkare_info_window_hidden } }
		hidden_effect = {
			set_country_flag = azkare_info_window_hidden
			set_country_flag = azkare_menu_3
			country_event = { id = azkare.113 }
		}
	}
	
	#Show info window
	option = {
		name = azkare.101.g
		trigger = { has_country_flag = azkare_info_window_hidden }
		hidden_effect = {
			clr_country_flag = azkare_info_window_hidden
			set_country_flag = azkare_menu_3
			country_event = { id = azkare.113 }
		}
	}
	
	#Refresh
	option = {
		name = azkare.101.dd
		hidden_effect = {
			set_country_flag = azkare_menu_3
			country_event = { id = azkare.113 }
			azkare_parliament_calculations = yes
		}
	}
	
	#Back to Menu
	option = {
		name = azkare.101.e
		hidden_effect = { country_event = { id = azkare.100 } }
	}
}

#Odheongun
country_event = {
	id = azkare.104
	title = azkare.101.t
	desc = azkare.104.d
	picture = { trigger = { NOT = { has_country_flag = azkare_info_window_hidden } } picture = AZKARE_INFO_WINDOW_eventPicture }
	picture = { trigger = { has_country_flag = azkare_info_window_hidden } picture = EMPTY_eventPicture }
	
	is_triggered_only = yes
	
	#Next Page
	option = {
		name = azkare.101.a
		hidden_effect = { country_event = { id = azkare.105 } }
	}
	
	#Previous Page
	option = {
		name = azkare.101.b
		hidden_effect = { country_event = { id = azkare.103 } }
	}
	
	#Reorganise
	option = {
		name = azkare.104.c
		custom_tooltip = azkare_reorganise_tt
		if = { limit = { has_country_modifier = azkare_reorganise_odheongun }
			custom_tooltip = azkare_reorganise_cost_tt
			add_adm_power = -100
			add_dip_power = -100
			add_mil_power = -100
		}
		hidden_effect = {
			add_country_modifier = { name = azkare_reorganise_odheongun duration = 18250 hidden = yes }
			every_owned_province = {
				limit = { culture_group = odheongun }
				set_seat_in_parliament = no
			}
			set_country_flag = azkare_menu_4
			country_event = { id = azkare.113 }
			azkare_parliament_calculations = yes
		}
	}
	
	#Hide info window
	option = {
		name = azkare.101.f
		trigger = { NOT = { has_country_flag = azkare_info_window_hidden } }
		hidden_effect = {
			set_country_flag = azkare_info_window_hidden
			set_country_flag = azkare_menu_4
			country_event = { id = azkare.113 }
		}
	}
	
	#Show info window
	option = {
		name = azkare.101.g
		trigger = { has_country_flag = azkare_info_window_hidden }
		hidden_effect = {
			clr_country_flag = azkare_info_window_hidden
			set_country_flag = azkare_menu_4
			country_event = { id = azkare.113 }
		}
	}
	
	#Refresh
	option = {
		name = azkare.101.dd
		hidden_effect = {
			set_country_flag = azkare_menu_4
			country_event = { id = azkare.113 }
			azkare_parliament_calculations = yes
		}
	}
	
	#Back to Menu
	option = {
		name = azkare.101.e
		hidden_effect = { country_event = { id = azkare.100 } }
	}
}

#Yan
country_event = {
	id = azkare.105
	title = azkare.101.t
	desc = azkare.105.d
	picture = { trigger = { NOT = { has_country_flag = azkare_info_window_hidden } } picture = AZKARE_INFO_WINDOW_eventPicture }
	picture = { trigger = { has_country_flag = azkare_info_window_hidden } picture = EMPTY_eventPicture }
	
	is_triggered_only = yes
	
	#Next Page
	option = {
		name = azkare.101.a
		hidden_effect = { country_event = { id = azkare.106 } }
	}
	
	#Previous Page
	option = {
		name = azkare.101.b
		hidden_effect = { country_event = { id = azkare.104 } }
	}
	
	#Reorganise
	option = {
		name = azkare.105.c
		custom_tooltip = azkare_reorganise_tt
		if = { limit = { has_country_modifier = azkare_reorganise_yan }
			custom_tooltip = azkare_reorganise_cost_tt
			add_adm_power = -100
			add_dip_power = -100
			add_mil_power = -100
		}
		hidden_effect = {
			add_country_modifier = { name = azkare_reorganise_yan duration = 18250 hidden = yes }
			every_owned_province = {
				limit = { culture_group = yan }
				set_seat_in_parliament = no
			}
			set_country_flag = azkare_menu_5
			country_event = { id = azkare.113 }
			azkare_parliament_calculations = yes
		}
	}
	
	#Hide info window
	option = {
		name = azkare.101.f
		trigger = { NOT = { has_country_flag = azkare_info_window_hidden } }
		hidden_effect = {
			set_country_flag = azkare_info_window_hidden
			set_country_flag = azkare_menu_5
			country_event = { id = azkare.113 }
		}
	}
	
	#Show info window
	option = {
		name = azkare.101.g
		trigger = { has_country_flag = azkare_info_window_hidden }
		hidden_effect = {
			clr_country_flag = azkare_info_window_hidden
			set_country_flag = azkare_menu_5
			country_event = { id = azkare.113 }
		}
	}
	
	#Refresh
	option = {
		name = azkare.101.dd
		hidden_effect = {
			set_country_flag = azkare_menu_5
			country_event = { id = azkare.113 }
			azkare_parliament_calculations = yes
		}
	}
	
	#Back to Menu
	option = {
		name = azkare.101.e
		hidden_effect = { country_event = { id = azkare.100 } }
	}
}

#Yanglam
country_event = {
	id = azkare.106
	title = azkare.101.t
	desc = azkare.106.d
	picture = { trigger = { NOT = { has_country_flag = azkare_info_window_hidden } } picture = AZKARE_INFO_WINDOW_eventPicture }
	picture = { trigger = { has_country_flag = azkare_info_window_hidden } picture = EMPTY_eventPicture }
	
	is_triggered_only = yes
	
	#Next Page
	option = {
		name = azkare.101.a
		hidden_effect = { country_event = { id = azkare.107 } }
	}
	
	#Previous Page
	option = {
		name = azkare.101.b
		hidden_effect = { country_event = { id = azkare.105 } }
	}
	
	#Reorganise
	option = {
		name = azkare.106.c
		custom_tooltip = azkare_reorganise_tt
		if = { limit = { has_country_modifier = azkare_reorganise_yanglam }
			custom_tooltip = azkare_reorganise_cost_tt
			add_adm_power = -100
			add_dip_power = -100
			add_mil_power = -100
		}
		hidden_effect = {
			add_country_modifier = { name = azkare_reorganise_yanglam duration = 18250 hidden = yes }
			every_owned_province = {
				limit = { culture_group = yanglam }
				set_seat_in_parliament = no
			}
			set_country_flag = azkare_menu_6
			country_event = { id = azkare.113 }
			azkare_parliament_calculations = yes
		}
	}
	
	#Hide info window
	option = {
		name = azkare.101.f
		trigger = { NOT = { has_country_flag = azkare_info_window_hidden } }
		hidden_effect = {
			set_country_flag = azkare_info_window_hidden
			set_country_flag = azkare_menu_6
			country_event = { id = azkare.113 }
		}
	}
	
	#Show info window
	option = {
		name = azkare.101.g
		trigger = { has_country_flag = azkare_info_window_hidden }
		hidden_effect = {
			clr_country_flag = azkare_info_window_hidden
			set_country_flag = azkare_menu_6
			country_event = { id = azkare.113 }
		}
	}
	
	#Refresh
	option = {
		name = azkare.101.dd
		hidden_effect = {
			set_country_flag = azkare_menu_6
			country_event = { id = azkare.113 }
			azkare_parliament_calculations = yes
		}
	}
	
	#Back to Menu
	option = {
		name = azkare.101.e
		hidden_effect = { country_event = { id = azkare.100 } }
	}
}

#Lower Raheni
country_event = {
	id = azkare.107
	title = azkare.101.t
	desc = azkare.107.d
	picture = { trigger = { NOT = { has_country_flag = azkare_info_window_hidden } } picture = AZKARE_INFO_WINDOW_eventPicture }
	picture = { trigger = { has_country_flag = azkare_info_window_hidden } picture = EMPTY_eventPicture }
	
	is_triggered_only = yes
	
	#Next Page
	option = {
		name = azkare.101.a
		hidden_effect = { country_event = { id = azkare.108 } }
	}
	
	#Previous Page
	option = {
		name = azkare.101.b
		hidden_effect = { country_event = { id = azkare.106 } }
	}
	
	#Reorganise
	option = {
		name = azkare.107.c
		custom_tooltip = azkare_reorganise_tt
		if = { limit = { has_country_modifier = azkare_reorganise_lower_raheni }
			custom_tooltip = azkare_reorganise_cost_tt
			add_adm_power = -100
			add_dip_power = -100
			add_mil_power = -100
		}
		hidden_effect = {
			add_country_modifier = { name = azkare_reorganise_lower_raheni duration = 18250 hidden = yes }
			every_owned_province = {
				limit = { culture_group = south_raheni }
				set_seat_in_parliament = no
			}
			set_country_flag = azkare_menu_7
			country_event = { id = azkare.113 }
			azkare_parliament_calculations = yes
		}
	}
	
	#Hide info window
	option = {
		name = azkare.101.f
		trigger = { NOT = { has_country_flag = azkare_info_window_hidden } }
		hidden_effect = {
			set_country_flag = azkare_info_window_hidden
			set_country_flag = azkare_menu_7
			country_event = { id = azkare.113 }
		}
	}
	
	#Show info window
	option = {
		name = azkare.101.g
		trigger = { has_country_flag = azkare_info_window_hidden }
		hidden_effect = {
			clr_country_flag = azkare_info_window_hidden
			set_country_flag = azkare_menu_7
			country_event = { id = azkare.113 }
		}
	}
	
	#Refresh
	option = {
		name = azkare.101.dd
		hidden_effect = {
			set_country_flag = azkare_menu_7
			country_event = { id = azkare.113 }
			azkare_parliament_calculations = yes
		}
	}
	
	#Back to Menu
	option = {
		name = azkare.101.e
		hidden_effect = { country_event = { id = azkare.100 } }
	}
}

#Middle Raheni
country_event = {
	id = azkare.108
	title = azkare.101.t
	desc = azkare.108.d
	picture = { trigger = { NOT = { has_country_flag = azkare_info_window_hidden } } picture = AZKARE_INFO_WINDOW_eventPicture }
	picture = { trigger = { has_country_flag = azkare_info_window_hidden } picture = EMPTY_eventPicture }
	
	is_triggered_only = yes
	
	#Next Page
	option = {
		name = azkare.101.a
		hidden_effect = { country_event = { id = azkare.109 } }
	}
	
	#Previous Page
	option = {
		name = azkare.101.b
		hidden_effect = { country_event = { id = azkare.107 } }
	}
	
	#Reorganise
	option = {
		name = azkare.108.c
		custom_tooltip = azkare_reorganise_tt
		if = { limit = { has_country_modifier = azkare_reorganise_middle_raheni }
			custom_tooltip = azkare_reorganise_cost_tt
			add_adm_power = -100
			add_dip_power = -100
			add_mil_power = -100
		}
		hidden_effect = {
			add_country_modifier = { name = azkare_reorganise_middle_raheni duration = 18250 hidden = yes }
			every_owned_province = {
				limit = { culture_group = middle_raheni }
				set_seat_in_parliament = no
			}
			set_country_flag = azkare_menu_8
			country_event = { id = azkare.113 }
			azkare_parliament_calculations = yes
		}
	}
	
	#Hide info window
	option = {
		name = azkare.101.f
		trigger = { NOT = { has_country_flag = azkare_info_window_hidden } }
		hidden_effect = {
			set_country_flag = azkare_info_window_hidden
			set_country_flag = azkare_menu_8
			country_event = { id = azkare.113 }
		}
	}
	
	#Show info window
	option = {
		name = azkare.101.g
		trigger = { has_country_flag = azkare_info_window_hidden }
		hidden_effect = {
			clr_country_flag = azkare_info_window_hidden
			set_country_flag = azkare_menu_8
			country_event = { id = azkare.113 }
		}
	}
	
	#Refresh
	option = {
		name = azkare.101.dd
		hidden_effect = {
			set_country_flag = azkare_menu_8
			country_event = { id = azkare.113 }
			azkare_parliament_calculations = yes
		}
	}
	
	#Back to Menu
	option = {
		name = azkare.101.e
		hidden_effect = { country_event = { id = azkare.100 } }
	}
}

#Upper Raheni
country_event = {
	id = azkare.109
	title = azkare.101.t
	desc = azkare.109.d
	picture = { trigger = { NOT = { has_country_flag = azkare_info_window_hidden } } picture = AZKARE_INFO_WINDOW_eventPicture }
	picture = { trigger = { has_country_flag = azkare_info_window_hidden } picture = EMPTY_eventPicture }
	
	is_triggered_only = yes
	
	#Next Page
	option = {
		name = azkare.101.a
		hidden_effect = { country_event = { id = azkare.110 } }
	}
	
	#Previous Page
	option = {
		name = azkare.101.b
		hidden_effect = { country_event = { id = azkare.108 } }
	}
	
	#Reorganise
	option = {
		name = azkare.109.c
		custom_tooltip = azkare_reorganise_tt
		if = { limit = { has_country_modifier = azkare_reorganise_upper_raheni }
			custom_tooltip = azkare_reorganise_cost_tt
			add_adm_power = -100
			add_dip_power = -100
			add_mil_power = -100
		}
		hidden_effect = {
			add_country_modifier = { name = azkare_reorganise_upper_raheni duration = 18250 hidden = yes }
			every_owned_province = {
				limit = { culture_group = upper_raheni }
				set_seat_in_parliament = no
			}
			set_country_flag = azkare_menu_9
			country_event = { id = azkare.113 }
			azkare_parliament_calculations = yes
		}
	}
	
	#Hide info window
	option = {
		name = azkare.101.f
		trigger = { NOT = { has_country_flag = azkare_info_window_hidden } }
		hidden_effect = {
			set_country_flag = azkare_info_window_hidden
			set_country_flag = azkare_menu_9
			country_event = { id = azkare.113 }
		}
	}
	
	#Show info window
	option = {
		name = azkare.101.g
		trigger = { has_country_flag = azkare_info_window_hidden }
		hidden_effect = {
			clr_country_flag = azkare_info_window_hidden
			set_country_flag = azkare_menu_9
			country_event = { id = azkare.113 }
		}
	}
	
	#Refresh
	option = {
		name = azkare.101.dd
		hidden_effect = {
			set_country_flag = azkare_menu_9
			country_event = { id = azkare.113 }
			azkare_parliament_calculations = yes
		}
	}
	
	#Back to Menu
	option = {
		name = azkare.101.e
		hidden_effect = { country_event = { id = azkare.100 } }
	}
}

#Non Human
country_event = {
	id = azkare.110
	title = azkare.101.t
	desc = azkare.110.d
	picture = { trigger = { NOT = { has_country_flag = azkare_info_window_hidden } } picture = AZKARE_INFO_WINDOW_eventPicture }
	picture = { trigger = { has_country_flag = azkare_info_window_hidden } picture = EMPTY_eventPicture }
	
	is_triggered_only = yes
	
	#Next Page
	option = {
		name = azkare.101.a
		hidden_effect = { country_event = { id = azkare.101 } }
	}
	
	#Previous Page
	option = {
		name = azkare.101.b
		hidden_effect = { country_event = { id = azkare.109 } }
	}
	
	#Reorganise
	option = {
		name = azkare.110.c
		custom_tooltip = azkare_reorganise_tt
		if = { limit = { has_country_modifier = azkare_reorganise_non_human }
			custom_tooltip = azkare_reorganise_cost_tt
			add_adm_power = -100
			add_dip_power = -100
			add_mil_power = -100
		}
		hidden_effect = {
			add_country_modifier = { name = azkare_reorganise_non_human duration = 18250 hidden = yes }
			every_owned_province = {
				limit = {
					OR = {
						culture = east_harimari
						culture = royal_harimari
						culture = swallow_command
						culture = fenghuang_command
						culture = feng_harpy
						culture = nephrite_dwarf
						culture = goldscale_kobold
						culture = brown_orc
					}
				}
				set_seat_in_parliament = no
			}
			set_country_flag = azkare_menu_10
			country_event = { id = azkare.113 }
			azkare_parliament_calculations = yes
		}
	}
	
	#Hide info window
	option = {
		name = azkare.101.f
		trigger = { NOT = { has_country_flag = azkare_info_window_hidden } }
		hidden_effect = {
			set_country_flag = azkare_info_window_hidden
			set_country_flag = azkare_menu_10
			country_event = { id = azkare.113 }
		}
	}
	
	#Show info window
	option = {
		name = azkare.101.g
		trigger = { has_country_flag = azkare_info_window_hidden }
		hidden_effect = {
			clr_country_flag = azkare_info_window_hidden
			set_country_flag = azkare_menu_10
			country_event = { id = azkare.113 }
		}
	}
	
	#Refresh
	option = {
		name = azkare.101.dd
		hidden_effect = {
			set_country_flag = azkare_menu_10
			country_event = { id = azkare.113 }
			azkare_parliament_calculations = yes
		}
	}
	
	#Back to Menu
	option = {
		name = azkare.101.e
		hidden_effect = { country_event = { id = azkare.100 } }
	}
}

#Jaerelic Legions
country_event = {
	id = azkare.111
	title = azkare.111.t
	desc = azkare.111.d
	picture = EMPTY_eventPicture
	
	is_triggered_only = yes
	
	immediate = {
		hidden_effect = {
			azkare_parliament_representation_calculations = yes
			azkare_parliament_country_effects = yes
			azkare_parliament_legions_calculations = yes
		}
	}
	
	#Close
	option = {
		name = azkare.100.z
		clr_country_flag = azkare_legions_menu
	}
	
	#Bonus 1
	option = {
		name = azkare.111.a
		if = { limit = { NOT = { has_country_modifier = azkare_legion_bonus_1 } }
			if = { limit = { NOT = { has_country_flag = azkare_legion_bonus_1_enabled } }
				custom_tooltip = azkare_locked_bonus_1_tt
			}
			else_if = { limit = { check_variable = { which = azkarePossibleLegionBonuses value = 1 } }
				add_country_modifier = { name = azkare_legion_bonus_1 duration = -1 }
				hidden_effect = {
					change_variable = { which = azkareNbLegionBonuses value = 1 }
				}
			}
			else = {
				custom_tooltip = azkare_not_enough_represented_cultures_tt
			}
		}
		else = {
			custom_tooltip = azkare_legion_bonus_already_enabled_tt
		}
		hidden_effect = { country_event = { id = azkare.112 } }
	}
	
	#Bonus 2
	option = {
		name = azkare.111.b
		if = { limit = { NOT = { has_country_modifier = azkare_legion_bonus_2 } }
			if = { limit = { NOT = { has_country_flag = azkare_legion_bonus_2_enabled } }
				custom_tooltip = azkare_locked_bonus_2_tt
			}
			else_if = { limit = { check_variable = { which = azkarePossibleLegionBonuses value = 1 } }
				add_country_modifier = { name = azkare_legion_bonus_2 duration = -1 }
				hidden_effect = {
					change_variable = { which = azkareNbLegionBonuses value = 1 }
				}
			}
			else = {
				custom_tooltip = azkare_not_enough_represented_cultures_tt
			}
		}
		else = {
			custom_tooltip = azkare_legion_bonus_already_enabled_tt
		}
		hidden_effect = { country_event = { id = azkare.112 } }
	}
	
	#Bonus 3
	option = {
		name = azkare.111.c
		if = { limit = { NOT = { has_country_modifier = azkare_legion_bonus_3 } }
			if = { limit = { NOT = { has_country_flag = azkare_legion_bonus_3_enabled } }
				custom_tooltip = azkare_locked_bonus_3_tt
			}
			else_if = { limit = { check_variable = { which = azkarePossibleLegionBonuses value = 1 } }
				add_country_modifier = { name = azkare_legion_bonus_3 duration = -1 }
				hidden_effect = {
					change_variable = { which = azkareNbLegionBonuses value = 1 }
				}
			}
			else = {
				custom_tooltip = azkare_not_enough_represented_cultures_tt
			}
		}
		else = {
			custom_tooltip = azkare_legion_bonus_already_enabled_tt
		}
		hidden_effect = { country_event = { id = azkare.112 } }
	}
	
	#Bonus 4
	option = {
		name = azkare.111.e
		if = { limit = { NOT = { has_country_modifier = azkare_legion_bonus_4 } }
			if = { limit = { NOT = { has_country_flag = azkare_legion_bonus_4_enabled } }
				custom_tooltip = azkare_locked_bonus_4_tt
			}
			else_if = { limit = { check_variable = { which = azkarePossibleLegionBonuses value = 1 } }
				add_country_modifier = { name = azkare_legion_bonus_4 duration = -1 }
				hidden_effect = {
					change_variable = { which = azkareNbLegionBonuses value = 1 }
				}
			}
			else = {
				custom_tooltip = azkare_not_enough_represented_cultures_tt
			}
		}
		else = {
			custom_tooltip = azkare_legion_bonus_already_enabled_tt
		}
		hidden_effect = { country_event = { id = azkare.112 } }
	}
	
	#Bonus 5
	option = {
		name = azkare.111.f
		if = { limit = { NOT = { has_country_modifier = azkare_legion_bonus_5 } }
			if = { limit = { NOT = { total_development = 2000 } }
				custom_tooltip = azkare_locked_bonus_5_tt
			}
			else_if = { limit = { check_variable = { which = azkarePossibleLegionBonuses value = 1 } }
				add_country_modifier = { name = azkare_legion_bonus_5 duration = -1 }
				hidden_effect = {
					change_variable = { which = azkareNbLegionBonuses value = 1 }
				}
			}
			else = {
				custom_tooltip = azkare_not_enough_represented_cultures_tt
			}
		}
		else = {
			custom_tooltip = azkare_legion_bonus_already_enabled_tt
		}
		hidden_effect = { country_event = { id = azkare.112 } }
	}
	
	#Bonus 6
	option = {
		name = azkare.111.g
		if = { limit = { NOT = { has_country_modifier = azkare_legion_bonus_6 } }	
			if = { limit = { NOT = { high_tolerance_dwarven_race_trigger = yes } }
				custom_tooltip = azkare_locked_bonus_6_tt
			}
			else_if = { limit = { check_variable = { which = azkarePossibleLegionBonuses value = 1 } }
				add_country_modifier = { name = azkare_legion_bonus_6 duration = -1 }
				hidden_effect = {
					change_variable = { which = azkareNbLegionBonuses value = 1 }
				}
			}
			else = {
				custom_tooltip = azkare_not_enough_represented_cultures_tt
			}
		}
		else = {
			custom_tooltip = azkare_legion_bonus_already_enabled_tt
		}
		hidden_effect = { country_event = { id = azkare.112 } }
	}
	#Bonus 7
	option = {
		name = azkare.111.h
		if = { limit = { NOT = { has_country_modifier = azkare_legion_bonus_7 } }	
			if = { limit = { NOT = { high_tolerance_orcish_race_trigger = yes } }
				custom_tooltip = azkare_locked_bonus_7_tt
			}
			else_if = { limit = { check_variable = { which = azkarePossibleLegionBonuses value = 1 } }
				add_country_modifier = { name = azkare_legion_bonus_7 duration = -1 }
				hidden_effect = {
					change_variable = { which = azkareNbLegionBonuses value = 1 }
				}
			}
			else = {
				custom_tooltip = azkare_not_enough_represented_cultures_tt
			}
		}
		else = {
			custom_tooltip = azkare_legion_bonus_already_enabled_tt
		}
		hidden_effect = { country_event = { id = azkare.112 } }
	}
	#Bonus 8
	option = {
		name = azkare.111.i
		if = { limit = { NOT = { has_country_modifier = azkare_legion_bonus_8 } }	
			if = { limit = { NOT = { high_tolerance_kobold_race_trigger = yes } }
				custom_tooltip = azkare_locked_bonus_8_tt
			}
			else_if = { limit = { check_variable = { which = azkarePossibleLegionBonuses value = 1 } }
				add_country_modifier = { name = azkare_legion_bonus_8 duration = -1 }
				hidden_effect = {
					change_variable = { which = azkareNbLegionBonuses value = 1 }
				}
			}
			else = {
				custom_tooltip = azkare_not_enough_represented_cultures_tt
			}
		}
		else = {
			custom_tooltip = azkare_legion_bonus_already_enabled_tt
		}
		hidden_effect = { country_event = { id = azkare.112 } }
	}
	#Bonus 9
	option = {
		name = azkare.111.j
		if = { limit = { NOT = { has_country_modifier = azkare_legion_bonus_9 } }	
			if = { limit = { NOT = { high_tolerance_harpy_race_trigger = yes } }
				custom_tooltip = azkare_locked_bonus_9_tt
			}
			else_if = { limit = { check_variable = { which = azkarePossibleLegionBonuses value = 1 } }
				add_country_modifier = { name = azkare_legion_bonus_9 duration = -1 }
				hidden_effect = {
					change_variable = { which = azkareNbLegionBonuses value = 1 }
				}
			}
			else = {
				custom_tooltip = azkare_not_enough_represented_cultures_tt
			}
		}
		else = {
			custom_tooltip = azkare_legion_bonus_already_enabled_tt
		}
		hidden_effect = { country_event = { id = azkare.112 } }
	}

	#Bonus 10
	option = {
		name = azkare.111.k
		if = { limit = { NOT = { has_country_modifier = azkare_legion_bonus_10 } }	
			if = { limit = { NOT = { high_tolerance_harimari_race_trigger = yes } }
				custom_tooltip = azkare_locked_bonus_10_tt
			}
			else_if = { limit = { check_variable = { which = azkarePossibleLegionBonuses value = 1 } }
				add_country_modifier = { name = azkare_legion_bonus_10 duration = -1 }
				hidden_effect = {
					change_variable = { which = azkareNbLegionBonuses value = 1 }
				}
			}
			else = {
				custom_tooltip = azkare_not_enough_represented_cultures_tt
			}
		}
		else = {
			custom_tooltip = azkare_legion_bonus_already_enabled_tt
		}
		hidden_effect = { country_event = { id = azkare.112 } }
	}
	#Bonus 11
	option = {
		name = azkare.111.l
		if = { limit = { NOT = { has_country_modifier = azkare_legion_bonus_11 } }	
			if = { limit = { NOT = { high_tolerance_hobgoblin_race_trigger = yes } }
				custom_tooltip = azkare_locked_bonus_11_tt
			}
			else_if = { limit = { check_variable = { which = azkarePossibleLegionBonuses value = 1 } }
				add_country_modifier = { name = azkare_legion_bonus_11 duration = -1 }
				hidden_effect = {
					change_variable = { which = azkareNbLegionBonuses value = 1 }
				}
			}
			else = {
				custom_tooltip = azkare_not_enough_represented_cultures_tt
			}
		}
		else = {
			custom_tooltip = azkare_legion_bonus_already_enabled_tt
		}
		hidden_effect = { country_event = { id = azkare.112 } }
	}
}

#
country_event = {
	id = azkare.112
	title = azkare.112.t
	desc = azkare.112.d
	picture = EMPTY_eventPicture
	
	is_triggered_only = yes
	
	hidden = yes
	
	option = {
		name = azkare.112.a
		country_event = { id = azkare.111 }
	}
}

#
country_event = {
	id = azkare.113
	title = azkare.113.t
	desc = azkare.113.d
	picture = EMPTY_eventPicture
	
	is_triggered_only = yes
	
	hidden = yes
	
	option = {
		name = azkare.113.a
		trigger_switch = {
			on_trigger = has_country_flag
			azkare_menu_1 = { clr_country_flag = azkare_menu_1 country_event = { id = azkare.101 } }
			azkare_menu_2 = { clr_country_flag = azkare_menu_2 country_event = { id = azkare.102 } }
			azkare_menu_3 = { clr_country_flag = azkare_menu_3 country_event = { id = azkare.103 } }
			azkare_menu_4 = { clr_country_flag = azkare_menu_4 country_event = { id = azkare.104 } }
			azkare_menu_5 = { clr_country_flag = azkare_menu_5 country_event = { id = azkare.105 } }
			azkare_menu_6 = { clr_country_flag = azkare_menu_6 country_event = { id = azkare.106 } }
			azkare_menu_7 = { clr_country_flag = azkare_menu_7 country_event = { id = azkare.107 } }
			azkare_menu_8 = { clr_country_flag = azkare_menu_8 country_event = { id = azkare.108 } }
			azkare_menu_9 = { clr_country_flag = azkare_menu_9 country_event = { id = azkare.109 } }
			azkare_menu_10 = { clr_country_flag = azkare_menu_10 country_event = { id = azkare.110 } }
		}
	}
}

#TODO

#Growth of Haless events. Events that fire upon certain conditions unrelated to mission tree and such.

#Demon Hills exploitation
province_event = {
	id = azkare.200
	title = azkare.200.t
	desc = azkare.200.d
	picture = KING_CHOICE_eventPicture
	
	trigger = {
		owner = {
			tag = Y00
			has_country_flag = azkare_repopulate_the_hills_flag
		}
		region = demon_hills_region
		OR = {
			culture = horned_ogre
			religion = lefthand_path
		}
	}
	
	mean_time_to_happen = {
		months = 12
	}
	
	option = {
		name = azkare.200.a
		custom_tooltip = azkare_demon_hills_exploitation_tooltip
		add_devastation = 50
		random_list = {
			1 = {
				add_base_tax = -1
			}
			1 = {
				add_base_production = -1
			}
			1 = {
				add_base_manpower = -1
			}
		}
		hidden_effect = {
			remove_province_modifier = ogre_majority_oppressed
			remove_province_modifier = ogre_majority_coexisting
			remove_province_modifier = ogre_majority_integrated
			remove_province_modifier = ogre_majority_primary
			owner = { largest_decrease_of_ogre_tolerance_effect = yes }
			random_list = {
				75 = {
					change_culture = hill_yan
					change_religion = righteous_path
					random_list = {
						20 = {
							change_trade_goods = copper
						}
						20 = {
							change_trade_goods = grain
						}
						20 = {
							change_trade_goods = tea
						}
						5 = {
							change_trade_goods = gems
						}
						20 = {
							change_trade_goods = iron
						}
						
					}
				}
				15 = {
					change_culture = brown_orc
					change_religion = old_dookan
					random_list = {
						20 = {
							change_trade_goods = livestock
						}
						20 = {
							change_trade_goods = grain
						}
						20 = {
							change_trade_goods = wool
						}
						20 = {
							change_trade_goods = wine
						}
						10 = {
							change_trade_goods = iron
						}
					}
				}
				10 = {
					change_culture = nephrite_dwarf
					change_religion = ancestor_worship
					random_list = {
						20 = {
							change_trade_goods = copper
						}
						20 = {
						change_trade_goods = gems
						}
						20 = {
							change_trade_goods = iron
						}
						2 = {
							change_trade_goods = gold
						}
					}
				}
			}
		}
	}
}

#Decline of Haiban
country_event = {
	id = azkare.201
	title = azkare.201.t
	desc = azkare.201.d
	picture = KING_CHOICE_eventPicture
	fire_only_once = yes
	trigger = {
		OR = {
			tag = Y86
			tag = Y00
		}
		owns_core_province = 4789
		owns_core_province = 4779
		is_year = 1550
	}
	
	mean_time_to_happen = {
		months = 120
	}
	
	
	option = { #Growth of Azkare
		name = azkare.201.a
		4779 = {
			add_center_of_trade_level = -3
		}
		4789 = {
		center_of_trade = 2
		}
	}
}

#Azkare Silk
country_event = {
	id = azkare.202
	title = azkare.202.t
	desc = azkare.202.d
	picture = KING_CHOICE_eventPicture
	fire_only_once = yes
	trigger = {
		OR = {
			tag = Y86
			tag = Y00
		}
		owns_core_province = 4789
		4789 = {
			development = 30
			has_manufactory_trigger = yes
		}
	}
	
	mean_time_to_happen = {
		months = 120
	}
	
	option = { #Get silk
		name = azkare.202.a
		4789 = {
			change_trade_goods = silk
		}
	}
}

#Kai request more representation
country_event = {
	id = azkare.203
	title = azkare.203.t
	desc = azkare.203.d
	picture = KING_CHOICE_eventPicture
	fire_only_once = yes
	trigger = {
		OR = {
			tag = Y86
			tag = Y00
		}
		num_of_owned_provinces_with = {
			value = 30
			culture_group = kai
		}
		num_of_owned_provinces_with = {
			value = 10
			NOT = {
			culture_group = kai
			}
		}
	}
	
	mean_time_to_happen = {
		months = 30
	}
	
	option = { #They deserve it
		name = azkare.203.a
		custom_tooltip = azkare_kai_request_representation_tooltip
		hidden_effect ={
			azkare_parliament_change_min_representation_effect = { kai = yes amount = 10 }
		}
		add_adm_power = 50
		add_dip_power = 50
		add_mil_power = 50
	}
	option = { #No! This goes against everything we are creating
		name = azkare.203.b
		every_owned_province = {
			limit = {
				culture_group = kai
			}
			add_unrest = 2
		}
		add_adm_power = -50
		add_dip_power = -50
		add_mil_power = -50
	}
}

#Tianlou hall of the risin sun
country_event = {
	id = azkare.204
	title = azkare.204.t
	desc = azkare.204.d
	picture = KING_CHOICE_eventPicture
	fire_only_once = yes
	trigger = {
		tag = Y00
		owns_core_province = 4871
	}
	
	mean_time_to_happen = {
		months = 120	
	}
	
	option = { #Restored at last
		name = azkare.204.a
		4871 = {
			add_base_tax = 2
			add_province_modifier = {
				name = azkare_modifier_hall_of_the_rising_sun
				duration = -1
			}
		}
	}
}

#Elves Flock to Azkare
country_event = {
	id = azkare.205
	title = azkare.205.t
	desc = azkare.205.d
	picture = KING_CHOICE_eventPicture
	trigger = { #Increase the frequency if you have had event azkare.15 #TODO
		OR = {
			tag = Y86
			tag = Y00
		}
		is_year = 1448
		NOT = {
			is_year = 1600
		}
		owns_core_province = 4789
		NOT = {
			has_country_flag = azkare_elves_flock_to_azkare_flag
		}
		NOT = {
			4789 = {
				development = 25
			}
		}
	}
	
	mean_time_to_happen = {
		months = 36
	}
	
	
	option = { #Elves settle from Haless in Azkare, Ideally this has several loc versions
		name = azkare.205.a
		4789 = {
			random_list = {
				1 = {
					add_base_tax = 1
				}
				1 = {
					add_base_production = 1
				}
				1 = {
					add_base_manpower = 1
				}
			}
			random_list = {
				4 = {

				}
				1 = {
					add_elven_minority_size_effect = yes
				}
			}
		}
		hidden_effect = {
			set_country_flag = azkare_elves_flock_to_azkare_flag
			country_event = { #Removes the flag so the event can happen again
				id = azkare.206
				days = 7300
				random = 1825
			}
		}
	}
}

country_event = {
	id = azkare.206
	title = azkare.206.t
	desc = azkare.206.d
	picture = KING_CHOICE_eventPicture
	is_triggered_only = yes
	fire_only_once = yes
	hidden = yes
	
	option = {
		name = azkare.206.a
		clr_country_flag = azkare_elves_flock_to_azkare_flag
	}
}

#Phangban Elves
country_event = {
	id = azkare.207
	title = azkare.207.t
	desc = azkare.207.d
	picture = KING_CHOICE_eventPicture
	fire_only_once = yes
	trigger = {
		OR = {
			tag = Y86
			tag = Y00
		}
		owns_core_province = 4396 #Phangban
	}
	
	mean_time_to_happen = {
		months = 360
	}
	
	option = { #Elven Population Grows
		name = azkare.207.a
		4396 = { #Phangban
			add_elven_minority_size_effect = yes
			add_base_tax = 2
		}
		set_country_flag = azkare_phangban_elves_flag
	}
}

#Vindal Darastarionzuir
country_event = {
	id = azkare.208
	title = azkare.208.t
	desc = azkare.208.d
	picture = KING_CHOICE_eventPicture
	fire_only_once = yes
	
	trigger = {
		OR = {
			tag = Y86
			tag = Y00
		}
		owns_core_province = 4396 #Phangban
		has_country_flag = azkare_phangban_elves_flag
	}
	
	mean_time_to_happen = {
		months = 360
	}
	
	option = { #Vindal Darastarionzuir, an elven expert on irrigation systems, now travels the realm to implement his improvements.
		name = azkare.208.a
		clr_country_flag = azkare_phangban_elves_flag
		add_country_modifier = {
			name = azkare_vindal_darastarionzuir
			duration = 18500
		}
	}
}

#Thalanior Ivranzuir
country_event = {
	id = azkare.209
	title = azkare.209.t
	desc = azkare.209.d
	picture = KING_CHOICE_eventPicture
	fire_only_once = yes
	trigger = {
		OR = {
			tag = Y86
			tag = Y00
		}
		OR = {
			Y86 = {
				controls = 4592
			}
			Y00 = {
				controls = 4592
			}
		}
	}
	
	mean_time_to_happen = {
		months = 1
	}
	
	
	option = { #Thalanior Ivranzuir, an elf and his comrades who have been fighting a guerilla war against Khabetei Teleni since they got kicked out during their civil war
		name = azkare.209.a
		add_manpower = 0.0014
		define_advisor = {
			name = "Thalanior Ivranzuir"
			type = commandant
			skill = 2
			discount = yes
		}
	}
}

#Amareis of the Cresting Phoenix
country_event = {
	id = azkare.210
	title = azkare.210.t
	desc = azkare.210.d
	picture = KING_CHOICE_eventPicture
	fire_only_once = yes
	trigger = {
		OR = {
			tag = Y86
			tag = Y00
		}
		is_year = 1454
		owns_core_province = 4789
	}
	
	mean_time_to_happen = {
		months = 12
	}
	
	
	option = { #Amareis of the Cresting Phoenix
		name = azkare.210.a
		add_army_tradition = 10
		define_advisor = {
			name = "Amareis of the Cresting Phoenix"
			type = commandant
			skill = 2
			discount = yes
		}
	}
}

#Carodir Raizenzuir
country_event = {
	id = azkare.211
	title = azkare.211.t
	desc = azkare.211.d
	picture = KING_CHOICE_eventPicture
	
	fire_only_once = yes
	
	trigger = {
		OR = {
			tag = Y86
			tag = Y00
		}
		OR = {
			1364 = {
				trade_share = {
					country = ROOT
					share = 50
				}
			}
			1366 = {
				trade_share = {
					country = ROOT
					share = 50
				}
			}
			1369 = {
				trade_share = {
					country = ROOT
					share = 50
				}
			}
		}
	}
	
	mean_time_to_happen = {
		months = 60
	}
	
	option = {
		name = azkare.211.a
		define_advisor = {
			type = trader
			skill = 2
			name = "Carodir Raizenzuir"
			culture = sunrise_elf
			religion = high_philosophy
			discount = yes
		}
		1366 = {
			add_trade_modifier = {
				who = ROOT
				duration = 9125
				power = 10
				key = carodir_influence
			}
		}
	}
}

#Xia Immigrants
country_event = {
	id = azkare.212
	title = azkare.212.t
	desc = azkare.212.d
	picture = KING_CHOICE_eventPicture
	
	fire_only_once = yes
	
	trigger = {
		OR = {
			tag = Y86
			tag = Y00
		}
		mission_completed = azkare_expand_nakhriban
	}
	
	mean_time_to_happen = {
		months = 720
	}
	
	option = {
		name = azkare.212.a
		4789 = {
			add_base_manpower = 1
		}
	}
}

#The death of [Son Name]
country_event = {
	id = azkare.213
	title = azkare.213.t
	desc = azkare.213.d
	picture = DEATH_OF_HEIR_eventPicture
	
	fire_only_once = yes
	
	trigger = {
		OR = {
			tag = Y86
			tag = Y00
		}
		has_ruler_flag = is_hiderion
		had_country_flag = {
			flag = hiderion_son_birth
			days = 43800
		}
	}
	
	option = {
		name = azkare.213.a
		add_stability = -1
	}
	
	after = {
		clr_country_flag = hiderion_son_birth
		clr_country_flag = hiderion_son_saetae
		clr_country_flag = hiderion_son_hiderionzuir
		clr_country_flag = hiderion_son_myazuir
		clr_country_flag = hiderion_son_tonanzuir
	}
}

#Azka Nurdazin
country_event = {
	id = azkare.214
	title = azkare.214.t
	desc = azkare.214.d
	picture = KING_CHOICE_eventPicture
	
	fire_only_once = yes
	
	trigger = {
		tag = Y00
		owns_core_province = 4789
		is_year = 1600
	}
	
	mean_time_to_happen = {
		months = 600
		
		modifier = {
			factor = 0.5
			is_year = 1650
		}
		
		modifier = {
			factor = 0.5
			is_year = 1700
		}
	}
	
	option = {
		name = azkare.214.a
		4789 = {
			add_base_manpower = 2
			rename_capital = "Azka Nurdazin"
		}
		add_army_tradition = 10
	}
}

#A Lord for a Lady
country_event = {
	id = azkare.215
	title = azkare.215.t
	desc = azkare.215.d
	picture = KING_CHOICE_eventPicture
	
	is_triggered_only = yes
	
	fire_only_once = yes
	
	trigger = {
		OR = {
			tag = Y86
			tag = Y00
		}
	}
	
	option = { # secsu tyme
		name = azkare.215.a
		add_country_modifier = {
			name = azkare_modifier_happy_marriage
			duration = 1825
		}
		hidden_effect = { country_event = { id = azkare.216 days = 1460 } } #4 years
		hidden_effect = { country_event = { id = azkare.217 days = 14600 random = 730 } } #40 years
	}
}

#The Son of Saetae
country_event = {
	id = azkare.216
	title = azkare.216.t
	desc = azkare.216.d
	picture = KING_CHOICE_eventPicture
	
	is_triggered_only = yes
	
	fire_only_once = yes
	
	trigger = {
		OR = {
			tag = Y86
			tag = Y00
		}
	}
	
	option = { #Saetae
		name = azkare.216.a
		set_country_flag = hiderion_son_saetae
		add_stability_or_adm_power = yes
	}
	
	option = { #Hiderionzuir
		name = azkare.216.b
		set_country_flag = hiderion_son_hiderionzuir
		add_stability_or_adm_power = yes
	}
	
	option = { #Myazuir
		name = azkare.216.c
		set_country_flag = hiderion_son_myazuir
		add_stability_or_adm_power = yes
	}
	
	option = { #Tonanzuir
		name = azkare.216.dd
		set_country_flag = hiderion_son_tonanzuir
		add_stability_or_adm_power = yes
	}
	
	after = {
		set_country_flag = hiderion_son_birth
		hidden_effect = { country_event = { id = azkare.220 days = 7300 } }
	}
}

#Death of Lady Mya
country_event = {
	id = azkare.217
	title = azkare.217.t
	desc = azkare.217.d
	picture = KING_CHOICE_eventPicture
	
	is_triggered_only = yes
	
	fire_only_once = yes
	
	trigger = {
		OR = {
			tag = Y86
			tag = Y00
		}
		has_ruler_flag = is_hiderion
	}
	
	option = {
		name = azkare.217.a
		add_ruler_modifier = {
			name = azkare_modifier_hiderion_the_patriarch
			duration = -1
		}
	}
	
	option = {
		name = azkare.217.b
		add_ruler_modifier = {
			name = azkare_modifier_hiderion_the_benefactor
			duration = -1
		}
	}
	
	option = {
		name = azkare.217.c
		add_ruler_modifier = {
			name = azkare_modifier_hiderion_the_ruler
			duration = -1
		}
	}
}

#A Lord's Last Will
country_event = {
	id = azkare.218
	title = azkare.218.t
	desc = azkare.218.d
	picture = KING_CHOICE_eventPicture
	
	is_triggered_only = yes
	
	fire_only_once = yes
	
	trigger = {
		OR = {
			tag = Y86
			tag = Y00
		}
	}
	
	option = {
		name = azkare.218.a
		add_dip_power = 20
	}
}

#The Legacies of Chaiya
country_event = {
	id = azkare.219
	title = azkare.219.t
	desc = azkare.219.d
	picture = KING_CHOICE_eventPicture
	
	is_triggered_only = yes
	
	fire_only_once = yes
	
	trigger = {
		OR = {
			tag = Y86
			tag = Y00
		}
	}
	
	option = {
		name = azkare.219.a
		add_adm_power = 20
		add_mil_power = 20
	}
}

#The Half Elf Dauloph
country_event = {
	id = azkare.220
	title = azkare.220.t
	desc = azkare.220.d
	picture = KING_CHOICE_eventPicture
	
	is_triggered_only = yes
	
	fire_only_once = yes
	
	trigger = {
		OR = {
			tag = Y86
			tag = Y00
		}
	}
	
	option = {
		name = azkare.220.a
		set_country_flag = half_elf_dauloph
		add_country_modifier = {
			name = azkare_modifier_half_elf_dauloph
			duration = 18250
		}
	}
}

#Death of Hiderion (Azkare)
country_event = {
	id = azkare.221
	title = azkare.221.t
	desc = azkare.221.d
	picture = KING_SICK_IN_BED_eventPicture
	
	is_triggered_only = yes
	
	fire_only_once = yes
	
	trigger = {
		tag = Y86
		has_ruler_flag = is_hiderion
	}
	
	option = { #Son
		name = azkare.221.a
		trigger = {
			has_country_flag = hiderion_son_birth
			had_country_flag = { flag = hiderion_son_birth days = 7300 }
		}
		
		azkare_hiderion_son_definition_effect = yes
		
		custom_tooltip = azkare_hiderion_death_unrest_tooltip #Every owned province will gain 5 unrest for 20 years
		hidden_effect = {
			every_owned_province = {
				add_province_modifier = {
					name = azkare_modifier_hiderion_death_unrest
					duration = 4300
				}
			}
		}
		if = {
			limit = { has_country_flag = half_elf_dauloph }
			add_manpower = 5
			add_treasury = 500
		}
	}
	
	option = { #Elf
		name = azkare.221.b
		define_ruler = {
			culture = sunrise_elf
			age = 153
			adm = 2
			dip = 5
			mil = 1
		}
		custom_tooltip = azkare_hiderion_death_unrest_tooltip #Every owned province will gain 5 unrest for 20 years
		hidden_effect = {
			every_owned_province = {
				add_province_modifier = {
					name = azkare_modifier_hiderion_death_unrest
					duration = 4300
				}
			}
		}
		add_adm_power = -200
		add_dip_power = -200
		add_mil_power = -200
	}
	
	option = { #Sikai
		name = azkare.221.c
		custom_tooltip = azkare_lose_content_tooltip
		define_ruler = {
			culture = sikai
			adm = 3
			dip = 3
			mil = 3
			min_age = 20
			max_age = 50
		}
		add_government_reform = kai_republic
		if = {
			limit = { has_country_flag = azkare_united_townships }
			change_tag = Z62
			hidden_effect = {
				restore_country_name = yes
				every_owned_province = {
					limit = { is_part_of_hre = yes }
					set_in_empire = no
				}
			}
			set_government_rank = 2
			if = {
				limit = { has_custom_ideas = no }
				country_event = { id = ideagroups.1 } #Swap Ideas
			}
			set_country_flag = formed_thangoya_flag
			thirabnir_area = {
				limit = {
					NOT = { is_core = ROOT }
					NOT = { owned_by = ROOT }
				}
				add_permanent_claim = ROOT
			}
			phakphon_area = {
				limit = {
					NOT = { is_core = ROOT }
					NOT = { owned_by = ROOT }
				}
				add_permanent_claim = ROOT
			}
			ngoen_area = {
				limit = {
					NOT = { is_core = ROOT }
					NOT = { owned_by = ROOT }
				}
				add_permanent_claim = ROOT
			}
			kaiden_area = {
				limit = {
					NOT = { is_core = ROOT }
					NOT = { owned_by = ROOT }
				}
				add_permanent_claim = ROOT
			}
			clr_country_flag = azkare_united_townships
		}
		set_country_flag = azkare_sikai_choice
		swap_non_generic_missions = yes
	}
	
	after = {
		clr_country_flag = hiderion_son_birth
		clr_country_flag = half_elf_dauloph
		clr_country_flag = hiderion_son_saetae
		clr_country_flag = hiderion_son_hiderionzuir
		clr_country_flag = hiderion_son_myazuir
		clr_country_flag = hiderion_son_tonanzuir
	}
}

#Death of Hiderion (Sunrise Empire)
country_event = {
	id = azkare.222
	title = azkare.222.t
	desc = azkare.222.d
	picture = KING_SICK_IN_BED_eventPicture
	
	fire_only_once = yes
	
	trigger = {
		tag = Y00
		NOT = { has_country_flag = hiderion_dies_ruling }
		NOT = { has_ruler_flag = is_hiderion }
	}
	
	mean_time_to_happen = {
		months = 600
	}
	
	option = {
		name = azkare.222.a
		trigger = { owns_core_province = 4789 }
		4789 = { #Azkare
			add_province_modifier = {
				name = azkare_modifier_hiderion_tomb
				duration = -1
			}
		}
	}
	
	option = {
		name = azkare.222.b
		trigger = { owns_core_province = 4500 }
		4500 = { #Sarisung
			add_province_modifier = {
				name = azkare_modifier_hiderion_tomb
				duration = -1
			}
		}
	}
	
	option = {
		name = azkare.222.c
		trigger = { owns_core_province = 4871 }
		4871 = { #Tianlou
			add_province_modifier = {
				name = azkare_modifier_hiderion_tomb
				duration = -1
			}
		}
	}
}

#The closest of Advisors
country_event = {
	id = azkare.223
	title = azkare.223.t
	desc = azkare.223.d
	picture = KING_CHOICE_eventPicture
	
	is_triggered_only = yes
	
	fire_only_once = yes
	
	trigger = {
		OR = {
			tag = Y86
			tag = Y00
		}
	}
	
	option = {
		name = azkare.223.a
		define_advisor = {
			type = theologian
			skill = 3
			name = "Dagran Jadebeard"
			female = no
			culture = nephrite_dwarf
			religion = ancestor_worship
			discount = yes
		}
	}
}

#Death of Jadebeard
country_event = {
	id = azkare.224
	title = azkare.224.t
	desc = azkare.224.d
	picture = KING_CHOICE_eventPicture
	
	is_triggered_only = yes
	
	fire_only_once = yes
	
	trigger = {
		OR = {
			tag = Y86
			tag = Y00
		}
	}
	
	option = {
		name = azkare.224.a
		trigger = { has_ruler_flag = is_hiderion }
		change_dip = -1
	}
	
	option = {
		name = azkare.224.b
		trigger = { NOT = { has_ruler_flag = is_hiderion } }
		add_prestige = -5
	}
}

country_event = {
	id = azkare.225
	title = azkare.225.t
	desc = azkare.225.d
	picture = KING_CHOICE_eventPicture
	
	fire_only_once = yes
	
	hidden = yes
	
	trigger = {
		tag = Y86
		is_subject = yes
		has_ruler_flag = is_hiderion
	}
	
	mean_time_to_happen = {
		days = 1
	}
	
	option = {
		name = azkare.225.a
		define_ruler = {
			culture = sikai
			adm = 3
			dip = 3
			mil = 3
			min_age = 20
			max_age = 50
		}
		set_country_flag = azkare_sikai_choice
		clr_country_flag = azkare_united_townships
		swap_non_generic_missions = yes
	}
}

#Hobgoblin Community Grows
country_event = {
	id = azkare.226
	title = azkare.226.t
	desc = azkare.226.d
	picture = KING_CHOICE_eventPicture
	
	is_triggered_only = yes
	
	trigger = {
		tag = Y00
		any_owned_province = { has_hobgoblin_majority_trigger = yes }
	}
	
	immediate = {
		random_owned_province = {
			limit = {
				any_neighbor_province = { NOT = { owned_by = ROOT } }
			}
			save_event_target_as = target_province
		}
	}
	
	option = {
		name = azkare.226.a
		event_target:target_province = {
			add_hobgoblin_minority_size_effect = yes
			add_base_manpower = 2
		}
	}
}

#Dwarven Miners
country_event = {
	id = azkare.227
	title = azkare.227.t
	desc = azkare.227.d
	picture = KING_CHOICE_eventPicture
	
	is_triggered_only = yes
	
	trigger = {
		tag = Y00
		any_owned_province = { has_dwarven_majority_trigger = yes }
	}
	
	immediate = {
		random_owned_province = {
			limit = {
				OR = {
					trade_goods = copper
					trade_goods = iron
					trade_goods = gold
					trade_goods = gems
					trade_goods = coal
					trade_goods = damestear
				}
			}
			save_event_target_as = target_province
		}
	}
	
	option = {
		name = azkare.228.a
		event_target:target_province = {
			add_dwarven_minority_size_effect = yes
			add_base_production = 2
		}
	}
}

#Dwarven Artisans
country_event = {
	id = azkare.228
	title = azkare.228.t
	desc = azkare.228.d
	picture = KING_CHOICE_eventPicture
	
	is_triggered_only = yes
	
	trigger = {
		tag = Y00
		any_owned_province = { has_dwarven_majority_trigger = yes }
	}
	
	immediate = {
		random_owned_province = {
			limit = {
				has_terrain = city_terrain
				development = 30
			}
			save_event_target_as = target_province
		}
	}
	
	option = {
		name = azkare.228.a
		event_target:target_province = {
			add_dwarven_minority_size_effect = yes
			add_base_production = 2
		}
	}
}

#Elven Community Grows
country_event = {
	id = azkare.229
	title = azkare.229.t
	desc = azkare.229.d
	picture = KING_CHOICE_eventPicture
	
	is_triggered_only = yes
	
	trigger = {
		tag = Y00
		NOT = {
			num_of_owned_provinces_with = {
				value = 12
				has_elven_minority_trigger = yes
			}
		}
	}
	
	immediate = {
		random_owned_province = {
			limit = {
				OR = {
					has_terrain = city_terrain
					province_has_center_of_trade_of_level = 1
				}
			}
			save_event_target_as = target_province
		}
	}
	
	option = {
		name = azkare.229.a
		event_target:target_province = {
			add_elven_minority_size_effect = yes
		}
	}
}

#Orcs settle in Reclaimed lands
country_event = {
	id = azkare.230
	title = azkare.230.t
	desc = azkare.230.d
	picture = KING_CHOICE_eventPicture
	
	is_triggered_only = yes
	
	trigger = {
		tag = Y00
		any_owned_province = { has_orcish_majority_trigger = yes }
	}
	
	immediate = {
		random_owned_province = {
			limit = {
				NOT = { development = 12 }
				OR = {
					trade_goods = grain
					trade_goods = livestock
				}
			}
			save_event_target_as = target_province
		}
	}
	
	option = {
		name = azkare.230.a
		event_target:target_province = {
			add_orcish_minority_size_effect = yes
			add_base_tax = 1
			add_base_manpower = 1
		}
	}
}

#Kobold community Grows
country_event = {
	id = azkare.231
	title = azkare.
	desc = azkare.
	picture = KING_CHOICE_eventPicture
	
	is_triggered_only = yes
	
	trigger = {
		tag = Y00
		any_owned_province = { has_kobold_majority_trigger = yes }
	}
	
	immediate = {
		random_owned_province = {
			limit = {
				has_terrain = city_terrain
				development = 20
			}
			save_event_target_as = target_province
		}
	}
	
	option = {
		name = azkare.231.a
		event_target:target_province = {
			add_kobold_minority_size_effect = yes
			add_base_tax = 1
		}
	}
}

#Hobgoblins adapt culturally
country_event = {
	id = azkare.232
	title = azkare.232.t
	desc = azkare.232.d
	picture = KING_CHOICE_eventPicture
	
	is_triggered_only = yes
	
	trigger = {
		tag = Y00
	}
	
	option = {
		name = azkare.232.a
		every_owned_province = {
			limit = {
				culture_group = hobgoblin
				NOT = {
					culture = swallow_command
				}
			}
			change_culture = fenghuang_command
		}
		custom_tooltip = azkare_fenghuang_conversion_tooltip
	}
}

#Fenghuang Foundation invests in Agriculture
province_event = {
	id = azkare.233
	title = azkare.233.t
	desc = azkare.233.d
	picture = FARMING_eventPicture
	
	is_triggered_only = yes
	
	trigger = {
		owner = {
			tag = Y00
			has_country_flag = azkare_fenghuang_foundation_flag
		}
		NOT = { development = 12 }
	}
	
	option = {
		name = azkare.233.a
		add_base_tax = 1
	}
}

#Fenghuang Foundation invests in industry
province_event = {
	id = azkare.234
	title = azkare.234.t
	desc = azkare.234.d
	picture = INVENTION_eventPicture
	
	is_triggered_only = yes
	
	trigger = {
		owner = {
			tag = Y00
			has_country_flag = azkare_fenghuang_foundation_flag
		}
		NOT = { development = 12 }
	}
	
	option = {
		name = azkare.234.a
		add_base_production = 1
	}
}

#Fenghuang Foundation invests in soldier's wellbeing
province_event = {
	id = azkare.235
	title = azkare.235.t
	desc = azkare.235.d
	picture = MILITARY_CAMP_eventPicture
	
	is_triggered_only = yes
	
	trigger = {
		owner = {
			tag = Y00
			has_country_flag = azkare_fenghuang_foundation_flag
		}
		NOT = { development = 12 }
	}
	
	option = {
		name = azkare.235.a
		add_base_manpower = 1
	}
}

#Monks of the Weaving Palm
country_event = {
	id = azkare.236
	title = azkare.236.t
	desc = azkare.236.d
	picture = KING_CHOICE_eventPicture
	
	is_triggered_only = yes
	
	trigger = {
		tag = Y00
	}
	
	option = {
		name = azkare.236.a
		add_country_modifier = {
			name = azkare_modifier_monks_of_weaving_palm
			duration = -1
		}
	}
}

#Convoc event number 1
country_event = {
	id = azkare.237
	title = azkare.237.t
	desc = azkare.237.d
	picture = KING_CHOICE_eventPicture
	
	trigger = {
		OR = {
			tag = Y86
			tag = Y00
		}
		has_parliament = yes
		NOT = { has_country_modifier = azkare_convoc_event_recently }
	}
	
	mean_time_to_happen = {
		months = 720
	}
	
	option = { #Convoc event number 1
		name = azkare.237.a
		add_country_modifier = {
				name = azkare_convoc_event_recently
				hidden = yes
				duration = 120
		}
		add_corruption = -2
	}
}

#Convoc event number 2
country_event = {
	id = azkare.238
	title = azkare.238.t
	desc = azkare.238.d
	picture = KING_CHOICE_eventPicture
	trigger = {
		OR = {
			tag = Y86
			tag = Y00
		}
		has_parliament = yes
		NOT = { has_country_modifier = azkare_convoc_event_recently }
	}
	
	mean_time_to_happen = {
		months = 720
	}
	
	option = { #Convoc event number 2
		name = azkare.238.a
		add_country_modifier = {
				name = azkare_convoc_event_recently
				hidden = yes
				duration = 120
		}
		add_republican_tradition = 2
	}
}
#Convoc event number 3
country_event = {
	id = azkare.239
	title = azkare.239.t
	desc = azkare.239.d
	picture = KING_CHOICE_eventPicture
	
	trigger = {
		OR = {
			tag = Y86
			tag = Y00
		}
		has_parliament = yes
		NOT = { has_country_modifier = azkare_convoc_event_recently }
	}
	
	mean_time_to_happen = {
		months = 720
	}
	
	option = { #Convoc event number 3
		name = azkare.239.a
		add_country_modifier = {
			name = azkare_convoc_event_recently
			hidden = yes
			duration = 120
		}
		define_advisor = {
			type = statesman
			culture = sunrise_elf
			religion = righteous_path
			skill = 3
			discount = yes
		}
	}
}

#Migration master event #Finish this dickwad #TODO
# country_event = {
	# id = azkare.240
	# title = azkare.240.t
	# desc = azkare.240.d
	# picture = KING_CHOICE_eventPicture
	# trigger = {
		# tag = Y00
	# }
	
	# hidden = yes
	
	# mean_time_to_happen = {
		# months = 20
	# }

	# option = {
		# name = azkare.240.a
		# if = {
			# limit = {
				# azkare_parliament_culture_is_represented = { nephrite_dwarf = yes }
				# OR = {
					# any_owned_province = {
						# OR = {
							# trade_goods = copper
							# trade_goods = iron
							# trade_goods = gold
							# trade_goods = gems
							# trade_goods = coal
							# trade_goods = damestear
							# NOT = { has_dwarven_minority_trigger = yes }
						# }
					# }
					# any_owned_province = {
						# has_terrain = city_terrain
						# development = 30
						# NOT = { has_dwarven_minority_trigger = yes }
					# }
				# }
				# NOT = { has_country_flag = azkare_dwarven_migration_flag }
			# }
			# random_list = {
				# 1 = {
					# country_event = {
						# id = azkare.227
						# days = 15
						# random = 28
					# }
				# }
				# 1 = {
					# country_event = {
						# id = azkare.228
						# days = 15
						# random = 28
					# }
				# }
				# 8 = {
					
				# }
			# }
		# }
		# if = {
			# limit = {
				# azkare_parliament_culture_is_represented = { brown_orc = yes }
				# NOT = { has_country_flag = azkare_orcish_migration_flag }
			# }
			# random_list = {
				# 1 = {
					# # country_event = { }
				# }
			# }
		# }
		# if = {
			# limit = {
				# azkare_parliament_culture_is_represented = { goldscale_kobold = yes }
				# NOT = { has_country_flag = azkare_kobold_migration_flag }
			# }
			# #effect
		# }
		# if = {
			# limit = {
				# OR = {
					# azkare_parliament_culture_is_represented = { royal_harimari = yes }
					# azkare_parliament_culture_is_represented = { east_harimari = yes }
				# }
				# NOT = { has_country_flag = azkare_harimari_migration_flag }
			# }
			# #effect
		# }
		# if = {
			# limit = {
				# OR = {
					# azkare_parliament_culture_is_represented = { swallow_command = yes }
					# azkare_parliament_culture_is_represented = { fenghuang_command = yes }
				# }
			# }
			# #effect
		# }
	# }
# }


