
namespace = the_command

country_event = { #Startup Event
	id = the_command.0
	title = the_command.0.t
	desc = the_command.0.d
	picture = LAND_MILITARY_eventPicture

	fire_only_once = yes
	is_triggered_only = yes
	
	trigger = {
		tag = R62
	}

	option = {
		name = the_command.0.a
		ai_chance = {
			factor = 1
		}
		add_army_professionalism = 0.2
		
		# set_country_flag = command_laws_of_ninun_unlocked_flag
		
		hidden_effect = {
			4311 = {
				set_variable = {
					which = command_jade_mines_tension
					value = 50
				}
			}
		}
	}
}

country_event = { #Shamakhad Resistance - Spawn rebels
	id = the_command.1
	title = the_command.1.t
	desc = the_command.1.d
	picture = ANGRY_MOB_eventPicture

	fire_only_once = yes
	
	trigger = {
		NOT = { is_year = 1460 }
		tag = R62
	}

	mean_time_to_happen = {
		months = 1
	}

	option = { #Destroy them!
		name = the_command.1.a
		ai_chance = {
			factor = 1
		}
		4633 = {
			spawn_rebels = {
				type = nationalist_rebels
				size = 2
				win = yes
			}
		}
		4632 = {
			spawn_rebels = {
				type = nationalist_rebels
				size = 1
				win = yes
			}
		}
		4634 = {
			spawn_rebels = {
				type = nationalist_rebels
				size = 1
				win = yes
			}
		}
		4636 = {
			spawn_rebels = {
				type = nationalist_rebels
				size = 1
				win = yes
			}
		}
		4637 = {
			spawn_rebels = {
				type = nationalist_rebels
				size = 1
				win = yes
			}
		}
	}
}

province_event = { # Orcish slaves in $Provincename$
	id = the_command.2
	title = the_command.2.t
	desc = the_command.2.d
	picture = WESTERNISATION_eventPicture
	goto = root
	
	trigger = {
		owned_by = R62
		has_orcish_minority_trigger = no
		has_orcish_majority_trigger = no
		NOT = {
			has_terrain = cavern
			has_terrain = dwarven_road
			has_terrain = dwarven_hold
			has_terrain = dwarven_hold_surface
			has_terrain = city_terrain
			trade_goods = cloth
			trade_goods = paper
			trade_goods = glass
			trade_goods = chinaware
			trade_goods = slaves
			trade_goods = silk
			trade_goods = dyes
		}
	}

	mean_time_to_happen = {
		years = 50
		
		modifier = {
			factor = 0.6
			OR = {
				trade_goods = tea
				trade_goods = cotton
				trade_goods = spices
				trade_goods = tropical_wood
				trade_goods = tobacco
				trade_goods = sugar
				trade_goods = coffee
				trade_goods = iron
				trade_goods = copper
				trade_goods = gold
			}
		}
		modifier = {
			factor = 0.5
			culture_group = hobgoblin
		}
		modifier = {
			factor = 0.25
			OR = {
				trade_goods = grain
				trade_goods = livestock
			}
		}
		modifier = {
			factor = 2
			unrest = 2
		}
		modifier = {
			factor = 5
			unrest = 5
		}
		modifier = {
			factor = 5
			unrest = 10
		}
	}
	is_mtth_scaled_to_size = 1

	option = { # 
		name = the_command.2.a
		ai_chance = {
			factor = 1
		}
		add_permanent_province_modifier = {
			name = orcish_slave_boom
			duration = 3650
		}
		add_orcish_minority_size_effect = yes
		small_decrease_of_orcish_tolerance_effect = yes
	}
}

country_event = { # The rule of [ROOT.Monarch.GetName]
	id = the_command.3
	title = the_command.3.t
	desc = the_command.3.desc
	picture = SEJM_eventPicture

	is_triggered_only = yes
	
	trigger = {
		has_reform = hobgoblin_stratocracy_reform
	}
	
	immediate = {
		hidden_effect = {
			add_legitimacy = 100
			add_legitimacy = -70
			
			set_country_flag = revoke_wolf_command_special_commissions
			set_country_flag = revoke_boar_command_special_commissions
			set_country_flag = revoke_lion_command_special_commissions
			set_country_flag = revoke_dragon_command_special_commissions
			set_country_flag = revoke_elephant_command_special_commissions
			set_country_flag = revoke_tiger_command_special_commissions
		}
	}

	option = { # The time of the Wolf has come
		name = the_command.3.a
		ai_chance = {
			factor = 1
		}
		trigger = {
			OR = {
				NOT = { dynasty = "Boarborn" }
				NOT = { has_faction = hob_boar_command }
			}
			OR = {
				NOT = { dynasty = "Lionborn" }
				NOT = { has_faction = hob_lion_command }
			}
			OR = {
				NOT = { dynasty = "Dragonborn" }
				NOT = { has_faction = hob_dragon_command }
			}
			OR = {
				NOT = { dynasty = "Elephantborn" }
				NOT = { has_faction = hob_elephant_command }
			}
			OR = {
				NOT = { dynasty = "Tigerborn" }
				NOT = { has_faction = hob_tiger_command }
			}
			has_faction = hob_wolf_command
		}
		
		add_faction_influence = {
			faction = hob_wolf_command
			influence = 10
		}
		add_ruler_modifier = {
			name = command_rule_of_the_boar
			duration = -1
		}
		change_primary_culture = boar_command
		set_ruler_culture = boar_command
		
		add_ruler_modifier = {
			name = command_unproven_leadership
			duration = 1825
		}
	}

	option = { # The time of the Boar has come
		name = the_command.3.b
		ai_chance = {
			factor = 1
		}
		trigger = {
			OR = {
				NOT = { dynasty = "Wolfborn" }
				NOT = { has_faction = hob_wolf_command }
			}
			OR = {
				NOT = { dynasty = "Lionborn" }
				NOT = { has_faction = hob_lion_command }
			}
			OR = {
				NOT = { dynasty = "Dragonborn" }
				NOT = { has_faction = hob_dragon_command }
			}
			OR = {
				NOT = { dynasty = "Elephantborn" }
				NOT = { has_faction = hob_elephant_command }
			}
			OR = {
				NOT = { dynasty = "Tigerborn" }
				NOT = { has_faction = hob_tiger_command }
			}
			has_faction = hob_boar_command
		}
		
		add_faction_influence = {
			faction = hob_boar_command
			influence = 10
		}
		add_ruler_modifier = {
			name = command_rule_of_the_boar
			duration = -1
		}
		change_primary_culture = boar_command
		set_ruler_culture = boar_command
		
		add_ruler_modifier = {
			name = command_unproven_leadership
			duration = 1825
		}
	}

	option = { # The time of the Lion has come
		name = the_command.3.c
		ai_chance = {
			factor = 1
		}
		trigger = {
			OR = {
				NOT = { dynasty = "Wolfborn" }
				NOT = { has_faction = hob_wolf_command }
			}
			OR = {
				NOT = { dynasty = "Boarborn" }
				NOT = { has_faction = hob_boar_command }
			}
			OR = {
				NOT = { dynasty = "Dragonborn" }
				NOT = { has_faction = hob_dragon_command }
			}
			OR = {
				NOT = { dynasty = "Elephantborn" }
				NOT = { has_faction = hob_elephant_command }
			}
			OR = {
				NOT = { dynasty = "Tigerborn" }
				NOT = { has_faction = hob_tiger_command }
			}
			has_faction = hob_lion_command
		}
		
		add_faction_influence = {
			faction = hob_lion_command
			influence = 20
		}
		add_ruler_modifier = {
			name = command_rule_of_the_lion
			duration = -1
		}
		change_primary_culture = lion_command
		set_ruler_culture = lion_command
		
		add_ruler_modifier = {
			name = command_unproven_leadership
			duration = 1825
		}
	}

	option = { # The time of the Dragon has come
		name = the_command.3.d
		ai_chance = {
			factor = 1
		}
		trigger = {
			OR = {
				NOT = { dynasty = "Wolfborn" }
				NOT = { has_faction = hob_wolf_command }
			}
			OR = {
				NOT = { dynasty = "Boarborn" }
				NOT = { has_faction = hob_boar_command }
			}
			OR = {
				NOT = { dynasty = "Lionborn" }
				NOT = { has_faction = hob_lion_command }
			}
			OR = {
				NOT = { dynasty = "Elephantborn" }
				NOT = { has_faction = hob_elephant_command }
			}
			OR = {
				NOT = { dynasty = "Tigerborn" }
				NOT = { has_faction = hob_tiger_command }
			}
			has_faction = hob_dragon_command
		}
		
		add_faction_influence = {
			faction = hob_dragon_command
			influence = 10
		}
		add_ruler_modifier = {
			name = command_rule_of_the_dragon
			duration = -1
		}
		change_primary_culture = dragon_command
		set_ruler_culture = dragon_command
		
		add_ruler_modifier = {
			name = command_unproven_leadership
			duration = 1825
		}
	}

	option = { # The time of the Elephant has come
		name = the_command.3.e
		ai_chance = {
			factor = 1
		}
		trigger = {
			OR = {
				NOT = { dynasty = "Wolfborn" }
				NOT = { has_faction = hob_wolf_command }
			}
			OR = {
				NOT = { dynasty = "Boarborn" }
				NOT = { has_faction = hob_boar_command }
			}
			OR = {
				NOT = { dynasty = "Lionborn" }
				NOT = { has_faction = hob_lion_command }
			}
			OR = {
				NOT = { dynasty = "Dragonborn" }
				NOT = { has_faction = hob_dragon_command }
			}
			OR = {
				NOT = { dynasty = "Tigerborn" }
				NOT = { has_faction = hob_tiger_command }
			}
			has_faction = hob_elephant_command
		}
		
		add_faction_influence = {
			faction = hob_elephant_command
			influence = 10
		}
		add_ruler_modifier = {
			name = command_rule_of_the_elephant
			duration = -1
		}
		change_primary_culture = elephant_command
		set_ruler_culture = elephant_command
		
		add_ruler_modifier = {
			name = command_unproven_leadership
			duration = 1825
		}
	}

	option = { # The time of the Tiger has come
		name = the_command.3.f
		ai_chance = {
			factor = 1
		}
		trigger = {
			OR = {
				NOT = { dynasty = "Wolfborn" }
				NOT = { has_faction = hob_wolf_command }
			}
			OR = {
				NOT = { dynasty = "Boarborn" }
				NOT = { has_faction = hob_boar_command }
			}
			OR = {
				NOT = { dynasty = "Lionborn" }
				NOT = { has_faction = hob_lion_command }
			}
			OR = {
				NOT = { dynasty = "Dragonborn" }
				NOT = { has_faction = hob_dragon_command }
			}
			OR = {
				NOT = { dynasty = "Elephantborn" }
				NOT = { has_faction = hob_elephant_command }
			}
			has_faction = hob_tiger_command
		}
		
		add_faction_influence = {
			faction = hob_tiger_command
			influence = 10
		}
		add_ruler_modifier = {
			name = command_rule_of_the_tiger
			duration = -1
		}
		change_primary_culture = tiger_command
		set_ruler_culture = tiger_command
		
		add_ruler_modifier = {
			name = command_unproven_leadership
			duration = 1825
		}
	}
}


### Magic events

country_event = { #End the Temple's Curse
	id = the_command.4
	title = the_command.4.t
	desc = the_command.4.desc
	picture = LAND_MILITARY_eventPicture

	fire_only_once = yes
	is_triggered_only = yes
	
	trigger = {
		tag = R62
	}

	option = {
		name = the_command.4.a
		ai_chance = {
			factor = 1
		}
		#! TODO
	}
}

country_event = { #Extraction
	id = the_command.5
	title = the_command.5.t
	desc = the_command.5.desc
	picture = LAND_MILITARY_eventPicture

	fire_only_once = yes
	is_triggered_only = yes
	
	trigger = {
		tag = R62
	}

	option = {
		name = the_command.5.a
		ai_chance = {
			factor = 1
		}
		add_legitimacy = -10
		add_country_modifier = {
			name = command_the_korashi_secret
			duration = -1
		}
		Y01 = {
			add_opinion = { who = ROOT modifier = command_extracted_korashi_secret }
			add_liberty_desire = 50
		}
	}
}

country_event = { #The End of Raheni Magic
	id = the_command.6
	title = the_command.6.t
	desc = the_command.6.desc
	picture = LAND_MILITARY_eventPicture

	fire_only_once = yes
	is_triggered_only = yes
	
	trigger = {
		tag = R62
	}

	option = {
		name = the_command.6.a
		ai_chance = {
			factor = 1
		}
		add_stability = 1
		custom_tooltip = command_the_end_of_raheni_magic_event_tt
		hidden_effect = { set_country_flag = command_the_end_of_raheni_magic_flag }
		#! TODO disable the rise of the shamans disaster
	}
}


### Jade Mines events

country_event = { #Goblin Infighting
	id = the_command.10
	title = the_command.10.t
	desc = the_command.10.desc
	picture = LAND_MILITARY_eventPicture
	goto = rebel_target

	is_triggered_only = yes
	
	trigger = {
		tag = R62
		NOT = { has_country_flag = command_jade_rivalry_ended }
	}
	
	mean_time_to_happen = {
		months = 1
		modifier = {
			factor = 1.5
			4311 = {
				check_variable = {
					which = command_jade_mines_tension
					value = 30
				}
			}
		}
		modifier = {
			factor = 1.5
			4311 = {
				check_variable = {
					which = command_jade_mines_tension
					value = 40
				}
			}
		}
		modifier = {
			factor = 1.5
			4311 = {
				check_variable = {
					which = command_jade_mines_tension
					value = 50
				}
			}
		}
	}
	
	immediate = {
		hidden_effect = {
			random_owned_province = {
				limit = { region = jade_mines_region }
				save_event_target_as = rebel_target
			}
		}
	}

	option = {
		name = the_command.10.a
		ai_chance = {
			factor = 1
		}
		event_target:rebel_target = {
			limit = { region = jade_mines_region }
			cave_goblin_rebel = 1
		}
		
		# 4311 = {
			# change_variable = {
				# which = command_jade_mines_tension
				# value = 1
			# }
		# }
	}
}

country_event = { #Territory Negotiations
	id = the_command.11
	title = the_command.11.t
	desc = the_command.11.desc
	picture = LAND_MILITARY_eventPicture

	is_triggered_only = yes
	
	trigger = {
		tag = R62
		NOT = { has_country_flag = command_jade_rivalry_ended }
	}

	option = {
		name = the_command.11.a
		ai_chance = {
			factor = 1
		}
		
		4311 = {
			change_variable = {
				which = command_jade_mines_tension
				value = -1
			}
		}
	}

	option = {
		name = the_command.11.b
		ai_chance = {
			factor = 1
		}
		
		add_dip_power = -25
		4311 = {
			change_variable = {
				which = command_jade_mines_tension
				value = -2
			}
		}
	}
}

country_event = { #Love Story
	id = the_command.12
	title = the_command.12.t
	desc = the_command.12.desc
	picture = LAND_MILITARY_eventPicture

	is_triggered_only = yes
	
	trigger = {
		tag = R62
		NOT = { has_country_flag = command_jade_rivalry_ended }
	}

	option = {
		name = the_command.12.a
		ai_chance = {
			factor = 1
		}
		
		add_legitimacy = -5
		4311 = {
			change_variable = {
				which = command_jade_mines_tension
				value = -1
			}
		}
	}

	option = {
		name = the_command.12.b
		ai_chance = {
			factor = 1
		}
		
		add_legitimacy = 5
	}
}

country_event = { #A Meeting in Gronstunad
	id = the_command.13
	title = the_command.13.t
	desc = the_command.13.desc
	picture = LAND_MILITARY_eventPicture

	is_triggered_only = yes
	
	trigger = {
		tag = R62
		NOT = { has_country_flag = command_jade_rivalry_ended }
	}

	option = {
		name = the_command.13.a
		ai_chance = {
			factor = 1
		}
		
		add_dip_power = -50
		4311 = {
			change_variable = {
				which = command_jade_mines_tension
				value = -3
			}
		}
	}

	option = {
		name = the_command.13.b
		ai_chance = {
			factor = 1
		}
		
		add_country_modifier = { name = command_preference_to_stolen_gem duration = 1825 }
		R66 = {
			add_liberty_desire = -25
		}
		4311 = {
			change_variable = {
				which = command_jade_mines_tension
				value = 1
			}
		}
	}

	option = {
		name = the_command.13.c
		ai_chance = {
			factor = 1
		}
		
		add_country_modifier = { name = command_preference_to_shadowstep duration = 1825 }
		R65 = {
			add_liberty_desire = -25
		}
		4311 = {
			change_variable = {
				which = command_jade_mines_tension
				value = 1
			}
		}
	}
}

country_event = { #The Governance of the Mines
	id = the_command.14
	title = the_command.14.t
	desc = the_command.14.desc
	picture = LAND_MILITARY_eventPicture

	fire_only_once = yes
	is_triggered_only = yes
	
	trigger = {
		tag = R62
	}

	option = {
		name = the_command.14.a
		ai_chance = {
			factor = 1
		}
		
		add_country_modifier = {
			name = command_educating_new_stewards
			duration = 5475
		}
		jade_mines_region = {
			limit = { owned_by = ROOT }
			add_province_modifier = {
				name = command_new_stewards_in_the_mines
				duration = 18250
			}
		}
		4311 = {
			change_variable = {
				which = command_jade_mines_tension
				value = 2
			}
		}
		custom_tooltip = command_governance_of_the_mines_stolen_gem_tt
		hidden_effect = { R66 = { set_country_flag = command_jade_march_preference_flag } }
	}

	option = {
		name = the_command.14.b
		ai_chance = {
			factor = 1
		}
		
		add_country_modifier = {
			name = command_educating_new_stewards
			duration = 5475
		}
		jade_mines_region = {
			limit = { owned_by = ROOT }
			add_province_modifier = {
				name = command_new_stewards_in_the_mines
				duration = 18250
			}
		}
		4311 = {
			change_variable = {
				which = command_jade_mines_tension
				value = 2
			}
		}
		custom_tooltip = command_governance_of_the_mines_shadowstep_tt
		hidden_effect = { R65 = { set_country_flag = command_jade_march_preference_flag } }
	}
}


### Moving Camp Events

province_event = { #Migration to $PROVINCE$
	id = the_command.20
	title = the_command.20.t
	desc = the_command.20.desc
	picture = LAND_MILITARY_eventPicture
	
	trigger = {
		region = shamakhad_region
		owned_by = R62
		R62 = { has_country_flag = command_moving_camp_started_flag }
	}

	mean_time_to_happen = {
		months = 6
		modifier = {
			factor = 0.8
			province_id = 4635
		}
		modifier = {
			factor = 0.5
			province_id = 4635
			NOT = { culture = lion_command }
		}
		modifier = {
			factor = 0.8
			OR = {
				area = ghilapur_area
				area = nadida_area
			}
		}
	}
	is_mtth_scaled_to_size = 1

	option = {
		name = the_command.20.a
		ai_chance = {
			factor = 1
		}
		
		owner = {
			random_owned_province = {
				limit = {
					region = jade_mines_region
					OR = {
						has_hobgoblin_majority_trigger = yes
						has_hobgoblin_minority_trigger = yes
					}
				}
				
				if = {
					limit = { has_hobgoblin_minority_trigger = yes }
					remove_hobgoblin_minority_size_effect = yes
				}
				else_if = {
					limit = {
						OR = {
							NOT = { development = 5 }
							AND = { province_id = 4313 NOT = { development = 17 } } #Vurdriz-Andriz
							AND = { province_id = 4311 NOT = { development = 24 } } #Gronstunad
						}
					}
					if = {
						limit = { development = 4 }
						random_list = {
							1 = { trigger = { base_tax = 2 } add_base_tax = -1 }
							1 = { trigger = { base_production = 2 } add_base_production = -1 }
							1 = { trigger = { base_manpower = 2 } add_base_manpower = -1 }
						}
					}
					change_culture = cave_goblin
				}
				else = {
					random_list = {
						1 = { trigger = { base_tax = 2 } add_base_tax = -1 }
						1 = { trigger = { base_production = 2 } add_base_production = -1 }
						1 = { trigger = { base_manpower = 2 } add_base_manpower = -1 }
					}
				}
			}
		}
		
		
		if = {
			limit = { has_large_hobgoblin_minority_trigger = yes }
			random_list = {
				3 =  {
					random_list = {
						3 = { add_base_tax = 1 }
						3 = { add_base_production = 1 }
						4 = { add_base_manpower = 1 }
					}
				}
				1 = {
					change_culture = lion_command
				}
			}
		}
		else_if = {
			limit = { has_hobgoblin_majority_trigger = yes }
			random_list = {
				3 = { add_base_tax = 1 }
				3 = { add_base_production = 1 }
				4 = { add_base_manpower = 1 }
			}
		}
		else = {
			add_hobgoblin_minority_size_effect = yes
		}
	}
}

country_event = { #The Lion Camp
	id = the_command.21
	title = the_command.21.t
	desc = the_command.21.desc
	picture = LAND_MILITARY_eventPicture

	fire_only_once = yes
	is_triggered_only = yes

	option = {
		name = the_command.21.a
		ai_chance = {
			factor = 1
		}
		
		4311 = { remove_province_modifier = command_lion_warcamp }
		4635 = {
			add_province_modifier = {
				name = command_lion_warcamp
				duration = -1
			}
			if = {
				limit = { NOT = { culture = lion_command } }
				change_culture = lion_command
			}
		}
		hidden_effect = {
			if = {
				limit = {
					has_estate_privilege = estate_lion_command_management
				}
				4311 = { remove_province_triggered_modifier = command_lion_management }
				4635 = { add_province_triggered_modifier = command_lion_management }
			}
		}
	}
}

country_event = { #Life Under the Sun
	id = the_command.22
	title = the_command.22.t
	desc = the_command.22.desc
	picture = LAND_MILITARY_eventPicture

	fire_only_once = yes
	is_triggered_only = yes
	
	trigger = {
		tag = R62
	}

	option = {
		name = the_command.22.a
		ai_chance = {
			factor = 1
		}
		add_country_modifier = {
			name = command_enthusiasm_for_life #! TODO: Increase chance of hobgoblin pop growth events while having this modifier.
			duration = 18250
		}
		custom_tooltip = desc_command_enthusiasm_for_life
	}
}


### Wuhyun and Philosophy Events

country_event = { #Similar Philosophies
	id = the_command.30
	title = the_command.30.t
	desc = the_command.30.desc
	picture = LAND_MILITARY_eventPicture

	fire_only_once = yes
	is_triggered_only = yes
	
	trigger = {
		tag = R62
	}

	option = {
		name = the_command.30.a
		ai_chance = {
			factor = 1
		}
		add_country_modifier = {
			name = command_exploiting_philosophical_similarities
			duration = 7300
		}
	}
	option = {
		name = the_command.30.b
		ai_chance = {
			factor = 1
		}
		add_country_modifier = {
			name = command_learning_from_philosophical_similarities
			duration = 7300
		}
	}
}

country_event = { #Human Proves Honour
	id = the_command.31
	title = the_command.31.t
	desc = the_command.31.desc
	picture = LAND_MILITARY_eventPicture

	fire_only_once = yes
	
	trigger = {
		mission_completed = R62_strange_yet_familiar
	}
	
	mean_time_to_happen = {
		months = 240
	}

	option = {
		name = the_command.31.a
		ai_chance = {
			factor = 1
		}
		define_general = {
			fire = 3
			shock = 4
			maneuver = 2
			siege = 2
			name = "Atar Daya Gakhkhar"
		}
		set_country_flag = command_human_proves_honour_flag
	}
	option = {
		name = the_command.31.b
		ai_chance = {
			factor = 1
		}
		define_advisor = {
			type = commandant
			skill = 3
			name = "Atar Daya Gakhkhar"
			cost_multiplier = 0.25
			culture = kamtarhid
			religion = godlost
		}
		set_country_flag = command_human_proves_honour_flag
	}
}

country_event = { #The Expertise of the Xiaken Temples
	id = the_command.32
	title = the_command.32.t
	desc = the_command.32.desc
	picture = LAND_MILITARY_eventPicture

	fire_only_once = yes
	is_triggered_only = yes
	
	trigger = {
		tag = R62
	}

	option = {
		name = the_command.32.a
		ai_chance = {
			factor = 1
		}
		#! TODO
	}
}

country_event = { #The Legality of Chi
	id = the_command.33
	title = the_command.33.t
	desc = the_command.33.desc
	picture = LAND_MILITARY_eventPicture

	fire_only_once = yes
	is_triggered_only = yes
	
	trigger = {
		tag = R62
	}

	option = {
		name = the_command.33.a
		ai_chance = {
			factor = 1
		}
		#! TODO
	}
}

province_event = { #The Laws of Ninun
	id = the_command.34
	title = the_command.34.t
	desc = the_command.34.desc
	picture = LAND_MILITARY_eventPicture

	hidden = yes
	
	trigger = {
		has_state_edict = laws_of_ninun_edict
		OR = {
			NOT = { culture_group = wuhyun }
			NOT = { religion = godlost }
		}
		has_human_majority_trigger = yes
	}
	
	mean_time_to_happen = {
		months = 24
		modifier = {
			factor = 0.5
			culture_group = wuhyun
		}
		modifier = {
			factor = 0.5
			religion = godlost
		}
	}

	option = {
		name = the_command.34.a
		ai_chance = {
			factor = 1
		}
		trigger = { NOT = { religion = wuhyun } }
		
		random_list = {
			1 = {
				if = {
					limit = { superregion = rahen_superregion }
					change_culture = kusonin
				}
				else_if = {
					limit = { superregion = yanshen_superregion }
					change_culture = ikaniwagain
				}
				else_if = {
					limit = { superregion = south_haless_superregion }
					change_culture = kintonan
				}
			}
			1 = {
				trigger = { has_large_half_orcish_minority_trigger = yes }
				change_culture = wuhyun_half_orc
			}
		}
	}
	option = {
		name = the_command.34.b
		trigger = { NOT = { religion = godlost } }
		ai_chance = {
			factor = 1
		}
		
		change_religion = godlost
	}
}

country_event = { #School Curriculums
	id = the_command.35
	title = the_command.35.t
	desc = the_command.35.desc
	picture = LAND_MILITARY_eventPicture

	is_triggered_only = yes
	
	trigger = {
		tag = R62 #! TODO agenda to change curriculum
	}

	option = { 
		name = the_command.35.a
		ai_chance = {
			factor = 1
		}
		add_country_modifier = {
			name = command_curriculum_maths
			duration = -1
		}
	}
	option = {
		name = the_command.35.b
		ai_chance = {
			factor = 1
		}
		add_country_modifier = {
			name = command_curriculum_philosophy
			duration = -1
		}
	}
	option = {
		name = the_command.35.c
		ai_chance = {
			factor = 1
		}
		add_country_modifier = {
			name = command_curriculum_sciences
			duration = -1
		}
	}
}

### Internal Laws

country_event = { #Clan Adoption
	id = the_command.40
	title = the_command.40.t
	desc = the_command.40.desc
	picture = LAND_MILITARY_eventPicture

	is_triggered_only = yes
	
	trigger = {
		tag = R62 #! TODO
		has_country_flag = command_clan_adoption_enabled_flag
		NOT = { manpower_percentage = 0.2 }
	}
	
	mean_time_to_happen = {
		days = 1
	}

	option = {
		name = the_command.40.a
		ai_chance = {
			factor = 1
		}
		war_exhaustion = -1
	}
	option = {
		name = the_command.40.b
		ai_chance = {
			factor = 1
		}
		add_yearly_manpower = 0.5
	}
	option = {
		name = the_command.40.c
		ai_chance = {
			factor = 1
		}
		add_legitimacy = 5
	}
}

country_event = { #Menu
	id = the_command.41
	title = the_command.41.t
	desc = the_command.41.desc
	picture = WAR_ELEPHANT_eventPicture
	
	is_triggered_only = yes
	
	immediate = {
		set_country_flag = command_the_ten_reforms_menu_open_flag
	}
	
	option = { #Nevermind
		name = flavor_castanor_go_back
		highlight = yes
		clr_country_flag = command_the_ten_reforms_menu_open_flag
	}
	option = { #Reform A: Band reform
		name = the_command.41.a
		trigger = { NOT = { has_country_flag = command_reform_a_passed } }
		
		if = {
			limit = {
				government_reform_progress = 25
				#Reform requirements
			}
			add_government_reform_progress = -25
			add_country_modifier = { name = command_reform_a duration = -1 }
			hidden_effect = { set_country_flag = command_reform_a_passed }
		}
		else = {
			custom_tooltip = command_reform_a_requirements
		}
	}
	option = { #Reform B: Marriage rights
		name = the_command.41.b
		trigger = { NOT = { has_country_flag = command_reform_b_passed } }
		
		if = {
			limit = {
				government_reform_progress = 25
				#Reform requirements
			}
			add_government_reform_progress = -25
			add_country_modifier = { name = command_reform_b duration = -1 }
			hidden_effect = { set_country_flag = command_reform_b_passed }
		}
		else = {
			custom_tooltip = command_reform_b_requirements
		}
	}
	option = { #Reform C: Law
		name = the_command.41.c
		trigger = { NOT = { has_country_flag = command_reform_c_passed } }
		
		if = {
			limit = {
				government_reform_progress = 25
				#Reform requirements
			}
			add_government_reform_progress = -25
			add_country_modifier = { name = command_reform_c duration = -1 }
			hidden_effect = { set_country_flag = command_reform_c_passed }
		}
		else = {
			custom_tooltip = command_reform_c_requirements
		}
	}
	option = { #Reform D: Property Rights
		name = the_command.41.d
		trigger = { NOT = { has_country_flag = command_reform_d_passed } }
		
		if = {
			limit = {
				government_reform_progress = 25
				#Reform requirements
			}
			add_government_reform_progress = -25
			#! TODO Pass reform effects
			hidden_effect = { set_country_flag = command_reform_d_passed }
		}
		else = {
			custom_tooltip = command_reform_d_requirements
		}
	}
	option = { #Reform E: Land
		name = the_command.41.e
		trigger = { NOT = { has_country_flag = command_reform_e_passed } }
		
		if = {
			limit = {
				government_reform_progress = 25
				#Reform requirements
			}
			add_government_reform_progress = -25
			take_estate_land_share_gigantic = { estate = all }
			hidden_effect = { set_country_flag = command_reform_e_passed }
		}
		else = {
			custom_tooltip = command_reform_e_requirements
		}
	}
	option = { #Reform F: Public Service
		name = the_command.41.f
		trigger = { NOT = { has_country_flag = command_reform_f_passed } }
		
		if = {
			limit = {
				government_reform_progress = 25
				#Reform requirements
			}
			add_government_reform_progress = -25
			add_country_modifier = { name = command_reform_f duration = -1 }
			hidden_effect = { set_country_flag = command_reform_f_passed }
		}
		else = {
			custom_tooltip = command_reform_f_requirements
		}
	}
	option = { #Reform G: Education
		name = the_command.41.g
		trigger = { NOT = { has_country_flag = command_reform_g_passed } }
		
		if = {
			limit = {
				government_reform_progress = 25
				#Reform requirements
			}
			add_government_reform_progress = -25
			custom_tooltip = command_upgrade_laws_of_ninun_tooltip
			hidden_effect = {
				if = {
					limit = { has_country_flag = laws_of_ninun_upgrade_1 }
					clr_country_flag = laws_of_ninun_upgrade_1
					set_country_flag = laws_of_ninun_upgrade_2
				}
				else = {
					set_country_flag = laws_of_ninun_upgrade_1
				}
			}
			hidden_effect = { set_country_flag = command_reform_g_passed }
		}
		else = {
			custom_tooltip = command_reform_g_requirements
		}
	}
	option = { #Reform H: Communication
		name = the_command.41.h
		trigger = { NOT = { has_country_flag = command_reform_h_passed } }
		
		if = {
			limit = {
				government_reform_progress = 25
				#Reform requirements
			}
			add_government_reform_progress = -25
			add_country_modifier = { name = command_reform_h duration = -1 }
			hidden_effect = { set_country_flag = command_reform_h_passed }
		}
		else = {
			custom_tooltip = command_reform_h_requirements
		}
	}
	option = { #Reform I: Administration
		name = the_command.41.i
		trigger = { NOT = { has_country_flag = command_reform_i_passed } }
		
		if = {
			limit = {
				government_reform_progress = 25
				#Reform requirements
			}
			add_government_reform_progress = -25
			add_country_modifier = { name = command_reform_i duration = 3650 }
			hidden_effect = { set_country_flag = command_reform_i_passed }
		}
		else = {
			custom_tooltip = command_reform_i_requirements
		}
	}
	option = { #Reform J: Currency
		name = the_command.41.j
		trigger = { NOT = { has_country_flag = command_reform_j_passed } }
		
		if = {
			limit = {
				government_reform_progress = 25
				#Reform requirements
			}
			add_government_reform_progress = -25
			add_years_of_income = 5
			add_inflation = -5
			hidden_effect = { set_country_flag = command_reform_j_passed }
		}
		else = {
			custom_tooltip = command_reform_j_requirements
		}
	}
	
	after = {
		if = {
			limit = {
				has_country_flag = command_reform_a_passed
				has_country_flag = command_reform_b_passed
				has_country_flag = command_reform_c_passed
				has_country_flag = command_reform_d_passed
				has_country_flag = command_reform_e_passed
				
				has_country_flag = command_reform_f_passed
				has_country_flag = command_reform_g_passed
				has_country_flag = command_reform_h_passed
				has_country_flag = command_reform_i_passed
				has_country_flag = command_reform_j_passed
			}
			clr_country_flag = command_reform_a_passed
			clr_country_flag = command_reform_b_passed
			clr_country_flag = command_reform_c_passed
			clr_country_flag = command_reform_d_passed
			clr_country_flag = command_reform_e_passed
			
			clr_country_flag = command_reform_f_passed
			clr_country_flag = command_reform_g_passed
			clr_country_flag = command_reform_h_passed
			clr_country_flag = command_reform_i_passed
			clr_country_flag = command_reform_j_passed
			
			clr_country_flag = command_the_ten_reforms_flag
			clr_country_flag = command_the_ten_reforms_menu_open_flag
			set_country_flag = command_the_ten_reforms_completed_flag
		}
		if = {
			limit = { has_country_flag = command_the_ten_reforms_menu_open_flag }
			country_event = { id = the_command.42 }
		}
	}
}

country_event = { #Menu 2
	id = the_command.42
	title = the_command.41.t
	desc = the_command.41.desc
	picture = WAR_ELEPHANT_eventPicture
	
	is_triggered_only = yes
	
	immediate = {
		set_country_flag = command_the_ten_reforms_menu_open_flag
	}
	
	option = { #Nevermind
		name = flavor_castanor_go_back
		highlight = yes
		clr_country_flag = command_the_ten_reforms_menu_open_flag
	}
	
	
	after = {
		if = {
			limit = {
				has_country_flag = command_reform_a_passed
				has_country_flag = command_reform_b_passed
				has_country_flag = command_reform_c_passed
				has_country_flag = command_reform_d_passed
				has_country_flag = command_reform_e_passed
				
				has_country_flag = command_reform_f_passed
				has_country_flag = command_reform_g_passed
				has_country_flag = command_reform_h_passed
				has_country_flag = command_reform_i_passed
				has_country_flag = command_reform_j_passed
			}
			clr_country_flag = command_reform_a_passed
			clr_country_flag = command_reform_b_passed
			clr_country_flag = command_reform_c_passed
			clr_country_flag = command_reform_d_passed
			clr_country_flag = command_reform_e_passed
			
			clr_country_flag = command_reform_f_passed
			clr_country_flag = command_reform_g_passed
			clr_country_flag = command_reform_h_passed
			clr_country_flag = command_reform_i_passed
			clr_country_flag = command_reform_j_passed
			
			clr_country_flag = command_the_ten_reforms_flag
			clr_country_flag = command_the_ten_reforms_menu_open_flag
			set_country_flag = command_the_ten_reforms_completed_flag
		}
		if = {
			limit = { has_country_flag = command_the_ten_reforms_menu_open_flag }
			country_event = { id = the_command.41 }
		}
	}
}

country_event = { #Obedience or Consensus
	id = the_command.43
	title = the_command.43.t
	desc = the_command.43.desc
	picture = LAND_MILITARY_eventPicture

	fire_only_once = yes
	is_triggered_only = yes
	
	trigger = {
		tag = R62
	}

	option = {
		name = the_command.43.a
		ai_chance = {
			factor = 1
		}
		add_government_reform = command_obedience
	}
	option = {
		name = the_command.43.b
		ai_chance = {
			factor = 1
		}
		add_government_reform = command_consensus
	}
}

#############################
#	Pushing Orc Slaves		#
#############################

country_event = { # Thunderfist Movement Menu
	id = the_command.100
	title = the_command.100.t
	desc = the_command.100.d
	picture = WESTERNISATION_eventPicture

	is_triggered_only = yes
	
	immediate = {
		
		hidden_effect = {
			random_owned_area = {
				limit = {
					superregion = rahen_superregion
					area_for_scope_province = {
						type = all
						owned_by = ROOT
						is_capital = no
					}
					any_neighbor_province = {
						owner = {
							NOT = {
								tag = R62
								is_subject_of = R62
							}
						}
					}
				}
				save_event_target_as = thunderfist_candidate_1
				set_province_flag = thunderfist_candidate_1
			}
			random_owned_area = {
				limit = {
					superregion = rahen_superregion
					area_for_scope_province = {
						type = all
						owned_by = ROOT
						is_capital = no
					}
					NOT = {
						has_province_flag = thunderfist_candidate_1
					}
					any_neighbor_province = {
						owner = {
							NOT = {
								tag = R62
								is_subject_of = R62
							}
						}
					}
				}
				save_event_target_as = thunderfist_candidate_2
				set_province_flag = thunderfist_candidate_2
			}
			random_owned_area = {
				limit = {
					superregion = rahen_superregion
					area_for_scope_province = {
						type = all
						owned_by = ROOT
						is_capital = no
					}
					NOT = {
						has_province_flag = thunderfist_candidate_1
						has_province_flag = thunderfist_candidate_2
					}
					any_neighbor_province = {
						owner = {
							NOT = {
								tag = R62
								is_subject_of = R62
							}
						}
					}
				}
				save_event_target_as = thunderfist_candidate_3
				set_province_flag = thunderfist_candidate_3
			}
		
		}
	}

	option = { # Choose first
		name = the_command.100.a
		trigger = {
			any_owned_province = {
				has_province_flag = thunderfist_candidate_1
			}
		}
		ai_chance = {
			factor = 1
		}
		goto = thunderfist_candidate_1
		
		add_country_modifier = {
			name = hobgoblin_thunderfist_shamans
			duration = 3650
		}
		event_target:thunderfist_candidate_1 = {
			area = {
				cede_province = R63
				if = {
					limit = { is_core = R62 }
					remove_core = R62
					add_core = R63
				}
			}
		}
		R63 = {
			every_owned_province = {
				limit = {
					NOT = { has_province_flag = thunderfist_candidate_1 }
				}
				cede_province = R62
				if = {
					limit = { is_core = R63 }
					remove_core = R63
					add_core = R62
				}
			}
			random_owned_province = {
				limit = {
					NOT = { has_province_flag = hobgoblin_has_orcish_minority }
				}
				add_core = PREV
				change_culture = PREV
				change_religion = PREV
				add_base_manpower = 1
			}
			random_owned_area = { set_province_flag = hobgoblin_has_orcish_minority }
			hidden_effect = {
				every_owned_province = {
					limit = {
						has_province_flag = thunderfist_candidate_1
					}
					clr_province_flag = thunderfist_candidate_1
				}
				change_variable = {
					which = number_of_times_moved
					value = 1
				}
			}
		}
		if = {
			limit = { has_country_flag = command_obedient_zanyu_kikunin_flag }
			R63 = {
				add_country_modifier = {
					name = hobgoblin_zanyu_kikun
					duration = 3650
				}
			}
		}
		hidden_effect = {
			every_owned_province = {
				clr_province_flag = thunderfist_candidate_2
				clr_province_flag = thunderfist_candidate_3
			}
		}
		
		close_single_menu = yes
	}

	option = { # Choose second
		name = the_command.100.b
		trigger = {
			any_owned_province = {
				has_province_flag = thunderfist_candidate_2
			}
		}
		ai_chance = {
			factor = 1
		}
		goto = thunderfist_candidate_2
		
		add_country_modifier = {
			name = hobgoblin_thunderfist_shamans
			duration = 3650
		}
		event_target:thunderfist_candidate_2 = {
			area = {
				cede_province = R63
				if = {
					limit = { is_core = R62 }
					remove_core = R62
					add_core = R63
				}
			}
		}
		R63 = {
			every_owned_province = {
				limit = {
					NOT = { has_province_flag = thunderfist_candidate_2 }
				}
				cede_province = R62
				if = {
					limit = { is_core = R63 }
					remove_core = R63
					add_core = R62
				}
			}
			random_owned_province = {
				limit = {
					NOT = { has_province_flag = hobgoblin_has_orcish_minority }
				}
				add_core = PREV
				change_culture = PREV
				change_religion = PREV
				add_base_manpower = 1
			}
			random_owned_area = { set_province_flag = hobgoblin_has_orcish_minority }
			hidden_effect = {
				every_owned_province = {
					limit = {
						has_province_flag = thunderfist_candidate_2
					}
					clr_province_flag = thunderfist_candidate_2
				}
				change_variable = {
					which = number_of_times_moved
					value = 1
				}
			}
		}
		if = {
			limit = { has_country_flag = command_obedient_zanyu_kikunin_flag }
			R63 = {
				add_country_modifier = {
					name = hobgoblin_zanyu_kikun
					duration = 3650
				}
			}
		}
		hidden_effect = {
			every_owned_province = {
				clr_province_flag = thunderfist_candidate_1
				clr_province_flag = thunderfist_candidate_3
			}
		}
		
		close_single_menu = yes
	}

	option = { # Choose third
		name = the_command.100.c
		trigger = {
			any_owned_province = {
				has_province_flag = thunderfist_candidate_3
			}
		}
		ai_chance = {
			factor = 1
		}
		goto = thunderfist_candidate_3
		
		add_country_modifier = {
			name = hobgoblin_thunderfist_shamans
			duration = 3650
		}
		event_target:thunderfist_candidate_3 = {
			area = {
				cede_province = R63
				if = {
					limit = { is_core = R62 }
					remove_core = R62
					add_core = R63
				}
			}
		}
		R63 = {
			every_owned_province = {
				limit = {
					NOT = { has_province_flag = thunderfist_candidate_3 }
				}
				cede_province = R62
				if = {
					limit = { is_core = R63 }
					remove_core = R63
					add_core = R62
				}
			}
			random_owned_province = {
				limit = {
					NOT = { has_province_flag = hobgoblin_has_orcish_minority }
				}
				change_culture = PREV
				change_religion = PREV
				add_core = PREV
				add_base_manpower = 1
			}
			random_owned_area = { set_province_flag = hobgoblin_has_orcish_minority }
			hidden_effect = {
				every_owned_province = {
					limit = {
						has_province_flag = thunderfist_candidate_3
					}
					clr_province_flag = thunderfist_candidate_3
				}
				change_variable = {
					which = number_of_times_moved
					value = 1
				}
			}
		}
		if = {
			limit = { has_country_flag = command_obedient_zanyu_kikunin_flag }
			R63 = {
				add_country_modifier = {
					name = hobgoblin_zanyu_kikun
					duration = 3650
				}
			}
		}
		hidden_effect = {
			every_owned_province = {
				clr_province_flag = thunderfist_candidate_1
				clr_province_flag = thunderfist_candidate_2
			}
		}
		
		close_single_menu = yes
	}
	
	option = {
		name = the_command.100.dd
		highlight = yes
		
		close_single_menu = yes
		hidden_effect = {
			every_owned_province = {
				clr_province_flag = thunderfist_candidate_1
				clr_province_flag = thunderfist_candidate_2
				clr_province_flag = thunderfist_candidate_3
			}
		}
	}
}

country_event = { # Bloodsong Movement Menu
	id = the_command.101
	title = the_command.101.t
	desc = the_command.101.d
	picture = WESTERNISATION_eventPicture

	is_triggered_only = yes
	
	immediate = {
		
		hidden_effect = {
			random_owned_area = {
				limit = {
					superregion = rahen_superregion
					area_for_scope_province = {
						type = all
						owned_by = ROOT
						is_capital = no
					}
					any_neighbor_province = {
						owner = {
							NOT = {
								tag = R62
								is_subject_of = R62
							}
						}
					}
				}
				save_event_target_as = bloodsong_candidate_1
				set_province_flag = bloodsong_candidate_1
			}
			random_owned_area = {
				limit = {
					superregion = rahen_superregion
					area_for_scope_province = {
						type = all
						owned_by = ROOT
						is_capital = no
					}
					NOT = {
						has_province_flag = bloodsong_candidate_1
					}
					any_neighbor_province = {
						owner = {
							NOT = {
								tag = R62
								is_subject_of = R62
							}
						}
					}
				}
				save_event_target_as = bloodsong_candidate_2
				set_province_flag = bloodsong_candidate_2
			}
			random_owned_area = {
				limit = {
					superregion = rahen_superregion
					area_for_scope_province = {
						type = all
						owned_by = ROOT
						is_capital = no
					}
					NOT = {
						has_province_flag = bloodsong_candidate_1
						has_province_flag = bloodsong_candidate_2
					}
					any_neighbor_province = {
						owner = {
							NOT = {
								tag = R62
								is_subject_of = R62
							}
						}
					}
				}
				save_event_target_as = bloodsong_candidate_3
				set_province_flag = bloodsong_candidate_3
			}
		
		}
	}

	option = { # Choose first
		name = the_command.101.a
		trigger = {
			any_owned_province = {
				has_province_flag = bloodsong_candidate_1
			}
		}
		ai_chance = {
			factor = 1
		}
		goto = bloodsong_candidate_1
		
		add_country_modifier = {
			name = hobgoblin_bloodsong_advance_guard
			duration = 3650
		}
		event_target:bloodsong_candidate_1 = {
			area = {
				cede_province = R64
				if = {
					limit = { is_core = R62 }
					remove_core = R62
					add_core = R64
				}
			}
		}
		R64 = {
			every_owned_province = {
				limit = {
					NOT = { has_province_flag = bloodsong_candidate_1 }
				}
				cede_province = R62
				if = {
					limit = { is_core = R64 }
					remove_core = R64
					add_core = R62
				}
			}
			random_owned_province = {
				limit = {
					NOT = { has_province_flag = hobgoblin_has_orcish_minority }
				}
				add_core = PREV
				change_culture = PREV
				change_religion = PREV
				add_base_manpower = 1
			}
			random_owned_area = { set_province_flag = hobgoblin_has_orcish_minority }
			hidden_effect = {
				every_owned_province = {
					limit = {
						has_province_flag = bloodsong_candidate_1
					}
					clr_province_flag = bloodsong_candidate_1
				}
				change_variable = {
					which = number_of_times_moved
					value = 1
				}
			}
		}
		if = {
			limit = { has_country_flag = command_obedient_zanyu_kikunin_flag }
			R64 = {
				add_country_modifier = {
					name = hobgoblin_zanyu_kikun
					duration = 3650
				}
			}
		}
		hidden_effect = {
			every_owned_province = {
				clr_province_flag = bloodsong_candidate_2
				clr_province_flag = bloodsong_candidate_3
			}
		}
		
		close_single_menu = yes
	}

	option = { # Choose second
		name = the_command.101.b
		trigger = {
			any_owned_province = {
				has_province_flag = bloodsong_candidate_2
			}
		}
		ai_chance = {
			factor = 1
		}
		goto = bloodsong_candidate_2
		
		add_country_modifier = {
			name = hobgoblin_bloodsong_advance_guard
			duration = 3650
		}
		event_target:bloodsong_candidate_2 = {
			area = {
				cede_province = R64
				if = {
					limit = { is_core = R62 }
					remove_core = R62
					add_core = R64
				}
			}
		}
		R64 = {
			every_owned_province = {
				limit = {
					NOT = { has_province_flag = bloodsong_candidate_2 }
				}
				cede_province = R62
				if = {
					limit = { is_core = R64 }
					remove_core = R64
					add_core = R62
				}
			}
			random_owned_province = {
				limit = {
					NOT = { has_province_flag = hobgoblin_has_orcish_minority }
				}
				add_core = PREV
				change_culture = PREV
				change_religion = PREV
				add_base_manpower = 1
			}
			random_owned_area = { set_province_flag = hobgoblin_has_orcish_minority }
			hidden_effect = {
				every_owned_province = {
					limit = {
						has_province_flag = bloodsong_candidate_2
					}
					clr_province_flag = bloodsong_candidate_2
				}
				change_variable = {
					which = number_of_times_moved
					value = 1
				}
			}
		}
		if = {
			limit = { has_country_flag = command_obedient_zanyu_kikunin_flag }
			R64 = {
				add_country_modifier = {
					name = hobgoblin_zanyu_kikun
					duration = 3650
				}
			}
		}
		hidden_effect = {
			every_owned_province = {
				clr_province_flag = bloodsong_candidate_1
				clr_province_flag = bloodsong_candidate_3
			}
		}
		
		close_single_menu = yes
	}

	option = { # Choose third
		name = the_command.101.c
		trigger = {
			any_owned_province = {
				has_province_flag = bloodsong_candidate_3
			}
		}
		ai_chance = {
			factor = 1
		}
		goto = bloodsong_candidate_3
		
		add_country_modifier = {
			name = hobgoblin_bloodsong_advance_guard
			duration = 3650
		}
		event_target:bloodsong_candidate_3 = {
			area = {
				cede_province = R64
				if = {
					limit = { is_core = R62 }
					remove_core = R62
					add_core = R64
				}
			}
		}
		R64 = {
			every_owned_province = {
				limit = {
					NOT = { has_province_flag = bloodsong_candidate_3 }
				}
				cede_province = R62
				if = {
					limit = { is_core = R64 }
					remove_core = R64
					add_core = R62
				}
			}
			random_owned_province = {
				limit = {
					NOT = { has_province_flag = hobgoblin_has_orcish_minority }
				}
				add_core = PREV
				change_culture = PREV
				change_religion = PREV
				add_base_manpower = 1
			}
			random_owned_area = { set_province_flag = hobgoblin_has_orcish_minority }
			hidden_effect = {
				every_owned_province = {
					limit = {
						has_province_flag = bloodsong_candidate_3
					}
					clr_province_flag = bloodsong_candidate_3
				}
				change_variable = {
					which = number_of_times_moved
					value = 1
				}
			}
		}
		if = {
			limit = { has_country_flag = command_obedient_zanyu_kikunin_flag }
			R64 = {
				add_country_modifier = {
					name = hobgoblin_zanyu_kikun
					duration = 3650
				}
			}
		}
		hidden_effect = {
			every_owned_province = {
				clr_province_flag = bloodsong_candidate_1
				clr_province_flag = bloodsong_candidate_2
			}
		}
		
		close_single_menu = yes
	}
	
	option = {
		name = the_command.101.dd
		highlight = yes
		
		close_single_menu = yes
		hidden_effect = {
			every_owned_province = {
				clr_province_flag = bloodsong_candidate_1
				clr_province_flag = bloodsong_candidate_2
				clr_province_flag = bloodsong_candidate_3
			}
		}
	}
}

################
#PUNISHEDHOBGOB#
################
country_event = {
	id = the_command.201
	title = the_command.201.t
	desc = the_command.201.d
	picture = COUNTRY_COLLAPSE_eventPicture
	
	fire_only_once = yes

	trigger = {
		tag = R62
		owns_or_subject_of = 4941
	}
	
	mean_time_to_happen = {
		months = 1
	}
	
	option = { #Good riddance.
		name = the_command.201.a
		ai_chance = {
			factor = 1
		}
		hidden_effect = {
			set_global_flag = ronin_executed
			4941 = {
				remove_province_modifier = hobgoblin_minority_oppressed_small
				remove_province_modifier = hobgoblin_minority_oppressed_large
				remove_province_modifier = hobgoblin_minority_coexisting_small
				remove_province_modifier = hobgoblin_minority_coexisting_large
				remove_province_modifier = hobgoblin_minority_integrated_small
				remove_province_modifier = hobgoblin_minority_integrated_large
			}
		}
		custom_tooltip = executing_ronin_tooltip
		4941 = {
			add_devastation = 35
		}
	}
}

###############################
# Tiger Command Estate Events #
###############################
#Reassess Teachings
country_event = {
	id = the_command.301
	title = the_command.301.t
	desc = the_command.301.d
	picture = COUNTRY_COLLAPSE_eventPicture
	
	is_triggered_only = yes
	
	option = { #Domestic Teachings
		name = the_command.301.a
		trigger = {
			NOT = {
				has_personal_deity = domestic_teachings
				has_personal_deity = domestic_teachings_improved
			}
		}
		ai_chance = {
			factor = 1
			modifier = {
				factor = 2
				faction_in_power = hob_lion_command
			}
		}
		
		if = {
			limit = { has_country_flag = command_new_schools_of_thought_flag }
			change_personal_deity = domestic_teachings_improved
		}
		else = {
			change_personal_deity = domestic_teachings
		}
	}
	
	option = { #Strict Teachings
		name = the_command.301.b
		trigger = {
			NOT = {
				has_personal_deity = strict_teachings
				has_personal_deity = strict_teachings_improved
			}
		}
		ai_chance = {
			factor = 1
			modifier = {
				factor = 2
				faction_in_power = hob_boar_command
			}
		}
		
		if = {
			limit = { has_country_flag = command_new_schools_of_thought_flag }
			change_personal_deity = strict_teachings_improved
		}
		else = {
			change_personal_deity = strict_teachings
		}
	}
	
	option = { #Lenient Teachings
		name = the_command.301.c
		trigger = {
			NOT = {
				has_personal_deity = lenient_teachings
				has_personal_deity = lenient_teachings_improved
			}
		}
		ai_chance = {
			factor = 1
			modifier = {
				factor = 2
				faction_in_power = hob_wolf_command
			}
		}
		
		if = {
			limit = { has_country_flag = command_new_schools_of_thought_flag }
			change_personal_deity = lenient_teachings_improved
		}
		else = {
			change_personal_deity = lenient_teachings
		}
	}
	
	option = { #Protective Teachings
		name = the_command.301.dd
		trigger = {
			NOT = {
				has_personal_deity = protective_teachings
				has_personal_deity = protective_teachings_improved
			}
		}
		ai_chance = {
			factor = 1
			modifier = {
				factor = 2
				faction_in_power = hob_wolf_command
			}
		}
		
		if = {
			limit = { has_country_flag = command_new_schools_of_thought_flag }
			change_personal_deity = protective_teachings_improved
		}
		else = {
			change_personal_deity = protective_teachings
		}
	}
	
	option = { #Imperialist Teachings
		name = the_command.301.e
		trigger = {
			NOT = {
				has_personal_deity = imperialist_teachings
				has_personal_deity = imperialist_teachings_improved
			}
		}
		ai_chance = {
			factor = 1
			modifier = {
				factor = 2
				faction_in_power = hob_lion_command
			}
		}
		
		if = {
			limit = { has_country_flag = command_new_schools_of_thought_flag }
			change_personal_deity = imperialist_teachings_improved
		}
		else = {
			change_personal_deity = imperialist_teachings
		}
	}
	
	option = { #Valorous Teachings
		name = the_command.301.f
		trigger = {
			NOT = {
				has_personal_deity = valorous_teachings
				has_personal_deity = valorous_teachings_improved
			}
		}
		ai_chance = {
			factor = 1
			modifier = {
				factor = 2
				faction_in_power = hob_boar_command
			}
		}
		
		if = {
			limit = { has_country_flag = command_new_schools_of_thought_flag }
			change_personal_deity = valorous_teachings_improved
		}
		else = {
			change_personal_deity = valorous_teachings
		}
	}
	
	option = { #Industrious Teachings
		name = the_command.301.g
		trigger = {
			NOT = {
				has_personal_deity = industrious_teachings
				has_personal_deity = industrious_teachings_improved
			}
		}
		ai_chance = {
			factor = 1
			modifier = {
				factor = 2
				faction_in_power = hob_wolf_command
			}
		}
		
		if = {
			limit = { has_country_flag = command_new_schools_of_thought_flag }
			change_personal_deity = industrious_teachings_improved
		}
		else = {
			change_personal_deity = industrious_teachings
		}
	}
	
	option = { #Nationalist Teachings
		name = the_command.301.h
		trigger = {
			has_country_flag = command_nationalist_teachings_flag
			NOT = { has_personal_deity = nationalist_teachings }
		}
		ai_chance = {
			factor = 1
			modifier = {
				factor = 2
				faction_in_power = hob_wolf_command
			}
		}
		
		change_personal_deity = nationalist_teachings
	}
}

#Invite Wuhyun Philosophers
country_event = {
	id = the_command.302
	title = the_command.302.t
	desc = the_command.302.d
	picture = COUNTRY_COLLAPSE_eventPicture
	
	is_triggered_only = yes
	
	option = { #Starry Eye
		name = the_command.302.a
		
		add_country_modifier = {
			name = command_starry_eye
			duration = 3650
		}
	}
	
	option = { #Radiant Sun
		name = the_command.302.b
		
		add_country_modifier = {
			name = command_radiant_sun
			duration = 3650
		}
	}
	
	option = { #Orange Sash
		name = the_command.302.c
		
		add_country_modifier = {
			name = command_orange_sash
			duration = 3650
		}
	}
	
	option = { #Golden Palace
		name = the_command.302.dd
		
		add_country_modifier = {
			name = command_golden_palace
			duration = 3650
		}
	}
	
	option = { #Unbroken Claw
		name = the_command.302.e
		
		add_country_modifier = {
			name = command_unbroken_claw
			duration = 3650
		}
	}
	
	option = { #Silk Turban
		name = the_command.302.f
		
		add_country_modifier = {
			name = command_silk_turban
			duration = 3650
		}
	}
	
	option = { #Ascendant Soul
		name = the_command.302.g
		
		add_country_modifier = {
			name = command_ascendant_soul
			duration = 3650
		}
	}
}

###############################
# New Command Creation Events #
###############################
#Dragon Command
country_event = {
	id = the_command.350
	title = the_command.350.t
	desc = the_command.350.d
	picture = COUNTRY_COLLAPSE_eventPicture
	
	is_triggered_only = yes
	
	option = { 
		name = the_command.350.a
		
		command_new_command_effect = yes
		change_estate_land_share = {
			estate = estate_dragon_command
			share = 10
		}
	}
}

#Elephant Command
country_event = {
	id = the_command.351
	title = the_command.351.t
	desc = the_command.351.d
	picture = COUNTRY_COLLAPSE_eventPicture
	
	is_triggered_only = yes
	
	option = { 
		name = the_command.351.a
		
		command_new_command_effect = yes
		change_estate_land_share = {
			estate = estate_elephant_command
			share = 10
		}
	}
}

#Tiger Command
country_event = {
	id = the_command.352
	title = the_command.352.t
	desc = the_command.352.d
	picture = COUNTRY_COLLAPSE_eventPicture
	
	is_triggered_only = yes
	
	option = { 
		name = the_command.352.a
		
		command_new_command_effect = yes
		change_estate_land_share = {
			estate = estate_tiger_command
			share = 10
		}
	}
}

########################
###   The War Room   ###
########################

country_event = {
	id = the_command.999
	title = the_command.999.t
	desc = the_command.999.desc
	picture = NOBLE_ESTATE_DEMANDS_eventPicture

	is_triggered_only = yes
	hidden = yes
	
	trigger = {
		has_reform = hobgoblin_stratocracy_reform
		has_country_flag = command_war_room
	}
	
	option = { #estates present an agenda
		name = the_command.999.a
		trigger = { NOT = { has_any_active_estate_agenda = yes } }
		ai_chance = {
			factor = 1
		}
		
		country_event = { id = the_command.1000 }
	}
	option = { #equipment shortages, who gets priority?
		name = the_command.999.b
		trigger = { has_any_active_estate_agenda = yes }
		ai_chance = {
			factor = 1
		}
		
		country_event = { id = the_command.1001 }
	}
	option = { #dispute over governance of newly conquered territories, who gets priority?
		name = the_command.999.a
		trigger = { has_any_active_estate_agenda = yes }
		ai_chance = {
			factor = 1
		}
		
		country_event = { id = the_command.1002 }
	}
	option = { #! TODO
		name = the_command.999.b
		trigger = { has_any_active_estate_agenda = yes }
		ai_chance = {
			factor = 1
		}
		
		country_event = { id = the_command.1003 }
	}
	option = {  #! TODO
		name = the_command.999.b
		trigger = { has_any_active_estate_agenda = yes }
		ai_chance = {
			factor = 1
		}
		
		country_event = { id = the_command.1004 }
	}
}

country_event = {
	id = the_command.1000
	title = the_command.1000.t
	desc = the_command.1000.desc
	picture = NOBLE_ESTATE_DEMANDS_eventPicture

	is_triggered_only = yes
	
	trigger = {
		has_reform = hobgoblin_stratocracy_reform
	}
	
	immediate = {
		hidden_effect = {
			pick_random_estate_if_present = { flag = present_agenda estate_action = generate_estate_agenda }
			pick_random_estate_if_present = { flag = present_agenda estate_action = generate_estate_agenda }
			pick_random_estate_if_present = { flag = present_agenda estate_action = generate_estate_agenda }
		}
	}

	after = {
		clr_country_flag = estate_wolf_command_present_agenda
		clr_country_flag = estate_boar_command_present_agenda
		clr_country_flag = estate_lion_command_present_agenda
		clr_country_flag = estate_dragon_command_present_agenda
		clr_country_flag = estate_elephant_command_present_agenda
		clr_country_flag = estate_tiger_command_present_agenda
		clr_country_flag = estate_gerunanin_present_agenda
		clear_estate_agenda_cache = ROOT
	}

	option = {
		name = the_command.1000.a
		trigger = { has_country_flag = estate_wolf_command_present_agenda }
		start_estate_agenda = estate_wolf_command
		ai_chance = {
			factor = 1
			modifier = {
				factor = 1.5
				NOT = {
					estate_loyalty = {
						loyalty = 30
						estate = estate_wolf_command
					}
				}
			}
			modifier = {
				factor = 2
				NOT = {
					estate_loyalty = {
						loyalty = 20
						estate = estate_wolf_command
					}
				}
			}
			modifier = {
				factor = 1.5
				estate_influence = {
					influence = 70
					estate = estate_wolf_command
				}
			}
			modifier = {
				factor = 2
				is_absolutism_active = yes
				num_of_estate_privileges = {
					estate = estate_wolf_command
					value = 1
				}
				estate_loyalty = {
					estate = estate_wolf_command
					higher_than_influence = no
				}
			}
		}
	}
	
	option = {
		name = the_command.1000.b
		trigger = { has_country_flag = estate_boar_command_present_agenda }
		start_estate_agenda = estate_boar_command
		ai_chance = {
			factor = 1
			modifier = {
				factor = 1.5
				NOT = {
					estate_loyalty = {
						loyalty = 30
						estate = estate_boar_command
					}
				}
			}
			modifier = {
				factor = 2
				NOT = {
					estate_loyalty = {
						loyalty = 20
						estate = estate_boar_command
					}
				}
			}
			modifier = {
				factor = 1.5
				estate_influence = {
					influence = 70
					estate = estate_boar_command
				}
			}
			modifier = {
				factor = 2
				is_absolutism_active = yes
				num_of_estate_privileges = {
					estate = estate_boar_command
					value = 1
				}
				estate_loyalty = {
					estate = estate_boar_command
					higher_than_influence = no
				}
			}
		}
	}
	
	option = {
		name = the_command.1000.c
		trigger = { has_country_flag = estate_lion_command_present_agenda }
		start_estate_agenda = estate_lion_command
		ai_chance = {
			factor = 1
			modifier = {
				factor = 1.5
				NOT = {
					estate_loyalty = {
						loyalty = 30
						estate = estate_lion_command
					}
				}
			}
			modifier = {
				factor = 2
				NOT = {
					estate_loyalty = {
						loyalty = 20
						estate = estate_lion_command
					}
				}
			}
			modifier = {
				factor = 1.5
				estate_influence = {
					influence = 70
					estate = estate_lion_command
				}
			}
			modifier = {
				factor = 2
				is_absolutism_active = yes
				num_of_estate_privileges = {
					estate = estate_lion_command
					value = 1
				}
				estate_loyalty = {
					estate = estate_lion_command
					higher_than_influence = no
				}
			}
		}
	}
	
	option = {
		name = the_command.1000.d
		trigger = { has_country_flag = estate_dragon_command_present_agenda }
		start_estate_agenda = estate_dragon_command
		ai_chance = {
			factor = 1
			modifier = {
				factor = 1.5
				NOT = {
					estate_loyalty = {
						loyalty = 30
						estate = estate_dragon_command
					}
				}
			}
			modifier = {
				factor = 2
				NOT = {
					estate_loyalty = {
						loyalty = 20
						estate = estate_dragon_command
					}
				}
			}
			modifier = {
				factor = 1.5
				estate_influence = {
					influence = 70
					estate = estate_dragon_command
				}
			}
			modifier = {
				factor = 2
				is_absolutism_active = yes
				num_of_estate_privileges = {
					estate = estate_dragon_command
					value = 1
				}
				estate_loyalty = {
					estate = estate_dragon_command
					higher_than_influence = no
				}
			}
		}
	}
	
	option = {
		name = the_command.1000.e
		trigger = { has_country_flag = estate_elephant_command_present_agenda }
		start_estate_agenda = estate_elephant_command
		ai_chance = {
			factor = 1
			modifier = {
				factor = 1.5
				NOT = {
					estate_loyalty = {
						loyalty = 30
						estate = estate_elephant_command
					}
				}
			}
			modifier = {
				factor = 2
				NOT = {
					estate_loyalty = {
						loyalty = 20
						estate = estate_elephant_command
					}
				}
			}
			modifier = {
				factor = 1.5
				estate_influence = {
					influence = 70
					estate = estate_elephant_command
				}
			}
			modifier = {
				factor = 2
				is_absolutism_active = yes
				num_of_estate_privileges = {
					estate = estate_elephant_command
					value = 1
				}
				estate_loyalty = {
					estate = estate_elephant_command
					higher_than_influence = no
				}
			}
		}
	}
	
	option = {
		name = the_command.1000.f
		trigger = { has_country_flag = estate_tiger_command_present_agenda }
		start_estate_agenda = estate_tiger_command
		ai_chance = {
			factor = 1
			modifier = {
				factor = 1.5
				NOT = {
					estate_loyalty = {
						loyalty = 30
						estate = estate_tiger_command
					}
				}
			}
			modifier = {
				factor = 2
				NOT = {
					estate_loyalty = {
						loyalty = 20
						estate = estate_tiger_command
					}
				}
			}
			modifier = {
				factor = 1.5
				estate_influence = {
					influence = 70
					estate = estate_tiger_command
				}
			}
			modifier = {
				factor = 2
				is_absolutism_active = yes
				num_of_estate_privileges = {
					estate = estate_tiger_command
					value = 1
				}
				estate_loyalty = {
					estate = estate_tiger_command
					higher_than_influence = no
				}
			}
		}
	}
	
	option = {
		name = the_command.1000.g
		trigger = { has_country_flag = estate_gerunanin_present_agenda }
		start_estate_agenda = estate_gerunanin
		ai_chance = {
			factor = 1
			modifier = {
				factor = 1.5
				NOT = {
					estate_loyalty = {
						loyalty = 30
						estate = estate_gerunanin
					}
				}
			}
			modifier = {
				factor = 2
				NOT = {
					estate_loyalty = {
						loyalty = 20
						estate = estate_gerunanin
					}
				}
			}
			modifier = {
				factor = 1.5
				estate_influence = {
					influence = 70
					estate = estate_gerunanin
				}
			}
			modifier = {
				factor = 2
				is_absolutism_active = yes
				num_of_estate_privileges = {
					estate = estate_gerunanin
					value = 1
				}
				estate_loyalty = {
					estate = estate_gerunanin
					higher_than_influence = no
				}
			}
		}
	}
}

country_event = {
	id = the_command.1001
	title = the_command.1001.t 
	desc = the_command.1001.desc #equipment shortages, who gets priority?
	picture = NOBLE_ESTATE_DEMANDS_eventPicture

	is_triggered_only = yes
	
	trigger = {
		has_reform = hobgoblin_stratocracy_reform
	}
	
	option = { 
		name = the_command.1001.a
		
		#! TODO
	}
	option = { 
		name = the_command.1001.b
		
		#! TODO
	}
}

country_event = {
	id = the_command.1002
	title = the_command.1002.t 
	desc = the_command.1002.desc #dispute over governance of newly conquered territories, who gets priority?
	picture = NOBLE_ESTATE_DEMANDS_eventPicture

	is_triggered_only = yes
	
	trigger = {
		has_reform = hobgoblin_stratocracy_reform
	}
	
	option = { 
		name = the_command.1002.a
		
		#! TODO
	}
	option = { 
		name = the_command.1002.b
		
		#! TODO
	}
}

country_event = {
	id = the_command.1003
	title = the_command.1003.t 
	desc = the_command.1003.desc #dispute over governance of newly conquered territories, who gets priority?
	picture = NOBLE_ESTATE_DEMANDS_eventPicture

	is_triggered_only = yes
	
	trigger = {
		has_reform = hobgoblin_stratocracy_reform
	}
	
	option = { 
		name = the_command.1003.a
		
		#! TODO
	}
	option = { 
		name = the_command.1003.b
		
		#! TODO
	}
}

country_event = {
	id = the_command.1004
	title = the_command.1004.t 
	desc = the_command.1004.desc #dispute over governance of newly conquered territories, who gets priority?
	picture = NOBLE_ESTATE_DEMANDS_eventPicture

	is_triggered_only = yes
	
	trigger = {
		has_reform = hobgoblin_stratocracy_reform
	}
	
	option = { 
		name = the_command.1004.a
		
		#! TODO
	}
	option = { 
		name = the_command.1004.b
		
		#! TODO
	}
}
